(footprint "Broken_Net_Tie" (version 20221018) (generator pcbnew)
  (layer "F.Cu")
  (fp_text reference "REF**" (at 0 -0.5 unlocked) (layer "F.SilkS")
      (effects (font (size 1 1) (thickness 0.15)))
    (tstamp 774e944c-d877-49eb-a79e-45d367bda8c4)
  )
  (fp_text value "Broken_Net_Tie" (at 0 1 unlocked) (layer "F.Fab")
      (effects (font (size 1 1) (thickness 0.15)))
    (tstamp 529c709a-2f61-4663-9469-e8fa4a6af110)
  )
  (fp_text user "${REFERENCE}" (at 0 2.5 unlocked) (layer "F.Fab")
      (effects (font (size 1 1) (thickness 0.15)))
    (tstamp 421b2c75-cba2-42fb-b3b0-ced4783f571f)
  )
  (pad "1" smd rect (at -2 0) (size 0.4 0.4) (layers "F.Cu" "F.Paste" "F.Mask") (tstamp cd47029b-5169-403a-9608-9f9e6aa374c8))
  (pad "2" smd rect (at 2 0) (size 0.4 0.4) (layers "F.Cu" "F.Paste" "F.Mask") (tstamp 341287f0-0725-4f3c-8ad7-69e57517f359))
)
