(footprint "Logo_BlobHaj_33x27mm" (version 20221018) (generator pcbnew)
  (layer "F.Cu")
  (descr "Blobhaj with a soldering iron, mask and silk layer")
  (tags "blahaj, blobhaj, cute")
  (fp_text reference "G*" (at 0 0) (layer "F.SilkS") hide
      (effects (font (size 1 1) (thickness 0.15)))
    (tstamp d7a90bf8-ddc5-4905-9396-350beb74689a)
  )
  (fp_text value "Logo_BlobHaj_33x27mm" (at 0 -1.905) (layer "F.SilkS") hide
      (effects (font (size 1 1) (thickness 0.15)))
    (tstamp e8eb8dcc-17f4-4403-8885-c9170ba5085d)
  )
  (fp_poly
    (pts
      (xy 20.0816 -13.6276)
      (xy 20.0574 -13.6197)
      (xy 20.0802 -13.6278)
    )

    (stroke (width 0) (type solid)) (fill solid) (layer "F.SilkS") (tstamp 89c19410-1bfb-4f22-8329-a3885794eee5))
  (fp_poly
    (pts
      (xy 20.0816 -13.6276)
      (xy 20.0802 -13.6278)
      (xy 20.1 -13.6349)
    )

    (stroke (width 0) (type solid)) (fill solid) (layer "F.SilkS") (tstamp ae57cd36-ec73-4b8e-890c-983bc8edd388))
  (fp_poly
    (pts
      (xy 20.1062 -13.6344)
      (xy 20.0816 -13.6276)
      (xy 20.1012 -13.6353)
    )

    (stroke (width 0) (type solid)) (fill solid) (layer "F.SilkS") (tstamp 1ea30be5-856a-4855-9714-b0f7c2da9661))
  (fp_poly
    (pts
      (xy 20.1194 -13.6425)
      (xy 20.1207 -13.6422)
      (xy 20.1012 -13.6353)
    )

    (stroke (width 0) (type solid)) (fill solid) (layer "F.SilkS") (tstamp a04ee2fc-0119-420f-875a-2c8f16cd5237))
  (fp_poly
    (pts
      (xy 20.1313 -13.6402)
      (xy 20.1062 -13.6344)
      (xy 20.1229 -13.6418)
    )

    (stroke (width 0) (type solid)) (fill solid) (layer "F.SilkS") (tstamp bbf8d8f6-e2e6-4c0a-adb5-8556eba0aede))
  (fp_poly
    (pts
      (xy 20.1389 -13.6486)
      (xy 20.1375 -13.6482)
      (xy 20.1387 -13.6487)
    )

    (stroke (width 0) (type solid)) (fill solid) (layer "F.SilkS") (tstamp fbcf7d00-1646-4e60-8620-f5259ee4f9f6))
  (fp_poly
    (pts
      (xy 20.1567 -13.6448)
      (xy 20.1313 -13.6402)
      (xy 20.1455 -13.6472)
    )

    (stroke (width 0) (type solid)) (fill solid) (layer "F.SilkS") (tstamp 0f0177fa-41b5-4770-9e96-e97b101351f0))
  (fp_poly
    (pts
      (xy 20.1824 -13.6483)
      (xy 20.1567 -13.6448)
      (xy 20.1687 -13.6517)
    )

    (stroke (width 0) (type solid)) (fill solid) (layer "F.SilkS") (tstamp d3c033b0-cd0c-4902-a7c1-eb1b6f1be374))
  (fp_poly
    (pts
      (xy 20.2084 -13.6506)
      (xy 20.1824 -13.6483)
      (xy 20.1927 -13.6552)
    )

    (stroke (width 0) (type solid)) (fill solid) (layer "F.SilkS") (tstamp 0f734474-ee7b-46f4-8b04-603ea57a393d))
  (fp_poly
    (pts
      (xy 20.2216 -13.6513)
      (xy 20.2084 -13.6506)
      (xy 20.2129 -13.6544)
    )

    (stroke (width 0) (type solid)) (fill solid) (layer "F.SilkS") (tstamp 4dc5276d-c9a9-45f1-8780-30902161a0e9))
  (fp_poly
    (pts
      (xy 20.1062 -13.6344)
      (xy 20.1012 -13.6353)
      (xy 20.1207 -13.6422)
      (xy 20.1229 -13.6418)
    )

    (stroke (width 0) (type solid)) (fill solid) (layer "F.SilkS") (tstamp 9c42a1cf-06da-4f7e-a9e1-e98f916544f1))
  (fp_poly
    (pts
      (xy 20.1592 -13.654)
      (xy 20.1687 -13.6517)
      (xy 20.1567 -13.6448)
      (xy 20.1455 -13.6472)
    )

    (stroke (width 0) (type solid)) (fill solid) (layer "F.SilkS") (tstamp 449e3a43-1da0-44e8-9664-f91cead07c09))
  (fp_poly
    (pts
      (xy 20.1809 -13.6586)
      (xy 20.1927 -13.6552)
      (xy 20.1824 -13.6483)
      (xy 20.1687 -13.6517)
    )

    (stroke (width 0) (type solid)) (fill solid) (layer "F.SilkS") (tstamp 3f41f20c-56af-4cfe-a2b7-75974173cd92))
  (fp_poly
    (pts
      (xy 20.199 -13.6594)
      (xy 20.2129 -13.6544)
      (xy 20.2084 -13.6506)
      (xy 20.1927 -13.6552)
    )

    (stroke (width 0) (type solid)) (fill solid) (layer "F.SilkS") (tstamp 4a016f3e-b35b-454f-8a05-cde55ec8dca5))
  (fp_poly
    (pts
      (xy 20.8481 -14.1253)
      (xy 20.8654 -14.1055)
      (xy 20.3014 -13.728)
      (xy 20.8189 -14.1583)
    )

    (stroke (width 0) (type solid)) (fill solid) (layer "F.SilkS") (tstamp 8cc3cbcb-fb1d-4db5-ad1e-fd03d31a0624))
  (fp_poly
    (pts
      (xy 20.8667 -11.2198)
      (xy 20.8701 -11.1923)
      (xy 20.8783 -11.1301)
      (xy 20.8599 -11.2681)
    )

    (stroke (width 0) (type solid)) (fill solid) (layer "F.SilkS") (tstamp 1a5f7426-1c28-4ba2-afed-fbddaacb1864))
  (fp_poly
    (pts
      (xy 20.8993 -14.0668)
      (xy 20.298 -13.7251)
      (xy 20.3014 -13.728)
      (xy 20.8654 -14.1055)
    )

    (stroke (width 0) (type solid)) (fill solid) (layer "F.SilkS") (tstamp ff5522b2-1bd8-4589-afc2-8eb0527c2a20))
  (fp_poly
    (pts
      (xy 20.9274 -14.0346)
      (xy 20.2911 -13.7194)
      (xy 20.298 -13.7251)
      (xy 20.8993 -14.0668)
    )

    (stroke (width 0) (type solid)) (fill solid) (layer "F.SilkS") (tstamp cad5539e-ce7c-4180-a48d-065deedad88b))
  (fp_poly
    (pts
      (xy 20.9755 -13.979)
      (xy 20.2697 -13.7016)
      (xy 20.2815 -13.7114)
      (xy 20.9524 -14.0059)
    )

    (stroke (width 0) (type solid)) (fill solid) (layer "F.SilkS") (tstamp 3ec702dd-6ffb-4d4b-a2ef-0b1cacaa232a))
  (fp_poly
    (pts
      (xy 20.9976 -13.9534)
      (xy 20.2561 -13.6902)
      (xy 20.2697 -13.7016)
      (xy 20.9755 -13.979)
    )

    (stroke (width 0) (type solid)) (fill solid) (layer "F.SilkS") (tstamp 106b0a9d-066d-428d-8098-46b1579be707))
  (fp_poly
    (pts
      (xy 11.9729 -19.2876)
      (xy 12.0679 -19.2674)
      (xy 12.1625 -19.2459)
      (xy 9.2915 -19.2304)
      (xy 9.2899 -19.2304)
    )

    (stroke (width 0) (type solid)) (fill solid) (layer "F.SilkS") (tstamp bdde78bc-1cb3-4d76-b1d6-a1ea208a55c0))
  (fp_poly
    (pts
      (xy 20.1375 -13.6482)
      (xy 20.1389 -13.6486)
      (xy 20.1455 -13.6472)
      (xy 20.1313 -13.6402)
      (xy 20.1229 -13.6418)
    )

    (stroke (width 0) (type solid)) (fill solid) (layer "F.SilkS") (tstamp af1f718a-c737-4696-8619-9cd2b9936962))
  (fp_poly
    (pts
      (xy 20.942 -14.0179)
      (xy 20.9524 -14.0059)
      (xy 20.2815 -13.7114)
      (xy 20.2911 -13.7194)
      (xy 20.9274 -14.0346)
    )

    (stroke (width 0) (type solid)) (fill solid) (layer "F.SilkS") (tstamp 3d627792-66f8-4401-8987-5c5a122a68f8))
  (fp_poly
    (pts
      (xy 8.3185 -15.6806)
      (xy 8.3231 -15.6944)
      (xy 8.3522 -15.7747)
      (xy 8.3826 -15.8536)
      (xy 8.4021 -15.9012)
      (xy 20.1194 -13.6425)
      (xy 20.1012 -13.6353)
    )

    (stroke (width 0) (type solid)) (fill solid) (layer "F.SilkS") (tstamp 1fbf65ee-0964-45a7-9c03-a74d451c5f03))
  (fp_poly
    (pts
      (xy 9.2899 -19.2304)
      (xy 6.8213 -19.2553)
      (xy 6.8301 -19.2579)
      (xy 6.8865 -19.2732)
      (xy 6.9573 -19.292)
      (xy 7.0649 -19.3189)
      (xy 9.2899 -19.2304)
    )

    (stroke (width 0) (type solid)) (fill solid) (layer "F.SilkS") (tstamp 63845677-1047-4124-91f8-9f067f7098ca))
  (fp_poly
    (pts
      (xy 20.1 -13.6349)
      (xy 20.0802 -13.6278)
      (xy 8.2581 -15.49)
      (xy 8.2694 -15.5289)
      (xy 8.2955 -15.6124)
      (xy 8.3185 -15.6806)
      (xy 20.1012 -13.6353)
    )

    (stroke (width 0) (type solid)) (fill solid) (layer "F.SilkS") (tstamp a21c4dac-10e9-4d1f-9bef-85035855cee2))
  (fp_poly
    (pts
      (xy 8.4021 -15.9012)
      (xy 8.4143 -15.9308)
      (xy 8.4473 -16.0066)
      (xy 8.4815 -16.0808)
      (xy 8.5168 -16.1535)
      (xy 8.5214 -16.1624)
      (xy 20.1387 -13.6487)
      (xy 20.1229 -13.6418)
    )

    (stroke (width 0) (type solid)) (fill solid) (layer "F.SilkS") (tstamp 4b21aabf-2ec5-4352-aa4b-f11fd16d8a30))
  (fp_poly
    (pts
      (xy 8.5214 -16.1624)
      (xy 8.5533 -16.2247)
      (xy 8.5909 -16.2944)
      (xy 8.6295 -16.3625)
      (xy 8.6691 -16.4292)
      (xy 8.7013 -16.4813)
      (xy 20.1592 -13.654)
      (xy 20.1455 -13.6472)
    )

    (stroke (width 0) (type solid)) (fill solid) (layer "F.SilkS") (tstamp add5e385-40ef-4316-b7bd-bddff7062842))
  (fp_poly
    (pts
      (xy 8.7013 -16.4813)
      (xy 8.7095 -16.4945)
      (xy 8.7509 -16.5582)
      (xy 8.7931 -16.6205)
      (xy 8.8361 -16.6813)
      (xy 8.8798 -16.7407)
      (xy 8.9241 -16.7987)
      (xy 8.9692 -16.8552)
      (xy 8.9974 -16.8893)
      (xy 20.1809 -13.6586)
      (xy 20.1687 -13.6517)
    )

    (stroke (width 0) (type solid)) (fill solid) (layer "F.SilkS") (tstamp 6c3265d3-1721-481c-9184-cfeb759fc136))
  (fp_poly
    (pts
      (xy 8.9974 -16.8893)
      (xy 9.0148 -16.9103)
      (xy 9.0609 -16.964)
      (xy 9.1075 -17.0163)
      (xy 9.1545 -17.0672)
      (xy 9.2019 -17.1167)
      (xy 9.2497 -17.1648)
      (xy 9.2978 -17.2116)
      (xy 9.346 -17.257)
      (xy 9.3945 -17.301)
      (xy 9.4431 -17.3437)
      (xy 9.4918 -17.3851)
      (xy 9.5406 -17.4251)
      (xy 9.5754 -17.4526)
      (xy 20.199 -13.6594)
      (xy 20.1927 -13.6552)
    )

    (stroke (width 0) (type solid)) (fill solid) (layer "F.SilkS") (tstamp dfb6c109-eb75-481f-8af8-4ba0b20e6396))
  (fp_poly
    (pts
      (xy 7.0649 -19.3189)
      (xy 7.0997 -19.3276)
      (xy 7.2434 -19.3608)
      (xy 7.3883 -19.3916)
      (xy 7.5343 -19.4201)
      (xy 7.6815 -19.4461)
      (xy 7.8298 -19.4698)
      (xy 7.9791 -19.4912)
      (xy 8.1296 -19.5102)
      (xy 8.281 -19.5269)
      (xy 8.4334 -19.5412)
      (xy 8.5868 -19.5532)
      (xy 8.741 -19.563)
      (xy 8.8962 -19.5704)
      (xy 9.0523 -19.5756)
      (xy 9.2092 -19.5784)
      (xy 9.288 -19.5789)
      (xy 9.2879 -19.5787)
      (xy 9.3748 -19.5788)
      (xy 9.5492 -19.5768)
      (xy 9.7245 -19.572)
      (xy 9.9007 -19.5644)
      (xy 10.0777 -19.5542)
      (xy 10.2555 -19.5413)
      (xy 10.434 -19.5258)
      (xy 10.6133 -19.5075)
      (xy 10.7932 -19.4866)
      (xy 10.9737 -19.4631)
      (xy 11.1548 -19.437)
      (xy 11.3365 -19.4082)
      (xy 11.5187 -19.3769)
      (xy 11.7013 -19.343)
      (xy 11.8844 -19.3064)
      (xy 11.9729 -19.2876)
      (xy 9.2899 -19.2304)
    )

    (stroke (width 0) (type solid)) (fill solid) (layer "F.SilkS") (tstamp 8c06e928-7864-413d-8f89-e2bd8c6226f8))
  (fp_poly
    (pts
      (xy 30.8911 -24.7903)
      (xy 30.9167 -24.7865)
      (xy 30.9467 -24.7792)
      (xy 30.9806 -24.7687)
      (xy 31.0182 -24.7552)
      (xy 31.0592 -24.739)
      (xy 31.1031 -24.7203)
      (xy 31.1738 -24.6883)
      (xy 31.2761 -24.6387)
      (xy 31.3847 -24.5833)
      (xy 31.4971 -24.5239)
      (xy 31.6674 -24.4314)
      (xy 31.884 -24.3111)
      (xy 32.0695 -24.2083)
      (xy 32.1738 -24.153)
      (xy 32.224 -24.1287)
      (xy 32.2412 -24.1218)
      (xy 32.2483 -24.0699)
      (xy 32.2603 -23.9644)
      (xy 32.2696 -23.8568)
      (xy 32.2761 -23.7471)
      (xy 32.2801 -23.6355)
      (xy 32.2815 -23.522)
      (xy 32.2805 -23.4067)
      (xy 32.277 -23.2896)
      (xy 32.2712 -23.1708)
      (xy 32.2632 -23.0504)
      (xy 32.2529 -22.9285)
      (xy 32.2405 -22.8051)
      (xy 32.226 -22.6803)
      (xy 32.2096 -22.5541)
      (xy 32.1912 -22.4267)
      (xy 32.1709 -22.2981)
      (xy 32.1489 -22.1684)
      (xy 32.1251 -22.0377)
      (xy 32.0996 -21.906)
      (xy 32.0726 -21.7733)
      (xy 32.044 -21.6399)
      (xy 32.014 -21.5056)
      (xy 31.9826 -21.3707)
      (xy 31.9499 -21.2352)
      (xy 31.9159 -21.0991)
      (xy 31.8808 -20.9625)
      (xy 31.8261 -20.7569)
      (xy 31.7495 -20.4817)
      (xy 31.6693 -20.2058)
      (xy 31.5862 -19.9299)
      (xy 31.5006 -19.6544)
      (xy 31.4132 -19.38)
      (xy 31.3244 -19.1072)
      (xy 31.1899 -18.7018)
      (xy 31.0107 -18.1726)
      (xy 30.8359 -17.66)
      (xy 30.7106 -17.29)
      (xy 30.6306 -17.0504)
      (xy 30.554 -16.8175)
      (xy 30.4816 -16.5919)
      (xy 30.4137 -16.3741)
      (xy 30.351 -16.1648)
      (xy 30.322 -16.0638)
      (xy 30.2317 -15.7439)
      (xy 30.0731 -15.1892)
      (xy 29.9364 -14.7199)
      (xy 29.8169 -14.3169)
      (xy 29.7626 -14.136)
      (xy 29.7301 -14.1427)
      (xy 29.666 -14.1569)
      (xy 29.603 -14.1723)
      (xy 29.5413 -14.189)
      (xy 29.4809 -14.2072)
      (xy 29.4222 -14.2271)
      (xy 29.3652 -14.2487)
      (xy 29.3101 -14.2722)
      (xy 29.2834 -14.2848)
      (xy 29.2348 -14.3085)
      (xy 29.1385 -14.3573)
      (xy 29.043 -14.4078)
      (xy 28.9482 -14.4596)
      (xy 28.8542 -14.5128)
      (xy 28.7606 -14.567)
      (xy 28.6212 -14.6498)
      (xy 28.3443 -14.8194)
      (xy 28.068 -14.99)
      (xy 27.8828 -15.1017)
      (xy 27.7896 -15.1564)
      (xy 27.8662 -15.4307)
      (xy 28.0203 -15.9769)
      (xy 28.1756 -16.5216)
      (xy 28.3326 -17.0666)
      (xy 28.4917 -17.6137)
      (xy 28.6533 -18.1646)
      (xy 28.8179 -18.7213)
      (xy 28.986 -19.2853)
      (xy 29.2448 -20.1478)
      (xy 29.6064 -21.342)
      (xy 29.9895 -22.598)
      (xy 30.3973 -23.9303)
      (xy 30.6129 -24.6335)
      (xy 30.8616 -24.7891)
      (xy 30.8657 -24.7899)
      (xy 30.875 -24.7907)
    )

    (stroke (width 0) (type solid)) (fill solid) (layer "F.SilkS") (tstamp 50c5ae35-78c3-474f-85e1-78715427b4e7))
  (fp_poly
    (pts
      (xy 9.5754 -17.4526)
      (xy 9.6137 -17.4828)
      (xy 9.7108 -17.555)
      (xy 9.8072 -17.622)
      (xy 9.9026 -17.6839)
      (xy 9.9964 -17.7408)
      (xy 10.0883 -17.7927)
      (xy 10.1779 -17.8397)
      (xy 10.2649 -17.8819)
      (xy 10.3487 -17.9193)
      (xy 10.4291 -17.952)
      (xy 10.5056 -17.9801)
      (xy 10.5779 -18.0035)
      (xy 10.6121 -18.0134)
      (xy 10.6881 -18.0346)
      (xy 10.84 -18.0745)
      (xy 10.9916 -18.1117)
      (xy 11.143 -18.1462)
      (xy 11.2942 -18.1779)
      (xy 11.4452 -18.207)
      (xy 11.5959 -18.2334)
      (xy 11.7463 -18.2571)
      (xy 11.8965 -18.2782)
      (xy 12.0465 -18.2967)
      (xy 12.1961 -18.3126)
      (xy 12.3455 -18.326)
      (xy 12.4946 -18.3368)
      (xy 12.6433 -18.3451)
      (xy 12.7918 -18.351)
      (xy 12.94 -18.3543)
      (xy 13.0139 -18.355)
      (xy 13.075 -18.3552)
      (xy 13.197 -18.3539)
      (xy 13.3189 -18.3504)
      (xy 13.4406 -18.3449)
      (xy 13.5621 -18.3374)
      (xy 13.6834 -18.3278)
      (xy 13.8046 -18.3161)
      (xy 13.9255 -18.3025)
      (xy 14.0463 -18.2869)
      (xy 14.1669 -18.2693)
      (xy 14.2872 -18.2497)
      (xy 14.4073 -18.2282)
      (xy 14.5272 -18.2048)
      (xy 14.6469 -18.1795)
      (xy 14.7663 -18.1522)
      (xy 14.8855 -18.1232)
      (xy 15.0044 -18.0922)
      (xy 15.123 -18.0594)
      (xy 15.2414 -18.0248)
      (xy 15.3595 -17.9884)
      (xy 15.4773 -17.9502)
      (xy 15.5948 -17.9102)
      (xy 15.7121 -17.8684)
      (xy 15.829 -17.825)
      (xy 15.9456 -17.7797)
      (xy 16.0619 -17.7328)
      (xy 16.1778 -17.6842)
      (xy 16.2934 -17.634)
      (xy 16.4087 -17.582)
      (xy 16.5236 -17.5284)
      (xy 16.6382 -17.4732)
      (xy 16.7524 -17.4164)
      (xy 16.8663 -17.358)
      (xy 16.9797 -17.2981)
      (xy 17.0928 -17.2366)
      (xy 17.2055 -17.1735)
      (xy 17.3178 -17.1089)
      (xy 17.4297 -17.0428)
      (xy 17.5412 -16.9752)
      (xy 17.6522 -16.9062)
      (xy 17.7628 -16.8356)
      (xy 17.873 -16.7637)
      (xy 17.9828 -16.6903)
      (xy 18.0921 -16.6155)
      (xy 18.2009 -16.5393)
      (xy 18.3093 -16.4618)
      (xy 18.4172 -16.3829)
      (xy 18.5247 -16.3026)
      (xy 18.6316 -16.221)
      (xy 18.7381 -16.1382)
      (xy 18.8441 -16.054)
      (xy 18.9496 -15.9686)
      (xy 19.0545 -15.8818)
      (xy 19.1589 -15.7939)
      (xy 19.2629 -15.7047)
      (xy 19.3662 -15.6144)
      (xy 19.4691 -15.5228)
      (xy 19.5714 -15.4301)
      (xy 19.6731 -15.3362)
      (xy 19.7743 -15.2412)
      (xy 19.8749 -15.145)
      (xy 19.9749 -15.0477)
      (xy 20.0744 -14.9494)
      (xy 20.1732 -14.85)
      (xy 20.2715 -14.7495)
      (xy 20.3691 -14.648)
      (xy 20.4662 -14.5454)
      (xy 20.5626 -14.4419)
      (xy 20.6584 -14.3373)
      (xy 20.7536 -14.2318)
      (xy 20.8189 -14.1583)
      (xy 20.2129 -13.6544)
    )

    (stroke (width 0) (type solid)) (fill solid) (layer "F.SilkS") (tstamp 1626d4bb-100f-4577-873e-9b489f365b5f))
  (fp_poly
    (pts
      (xy 20.2561 -13.6902)
      (xy 20.9976 -13.9534)
      (xy 21.0353 -13.9096)
      (xy 21.1278 -13.8003)
      (xy 21.2197 -13.6902)
      (xy 21.311 -13.5792)
      (xy 21.4015 -13.4673)
      (xy 21.4914 -13.3546)
      (xy 21.5806 -13.2411)
      (xy 21.669 -13.1268)
      (xy 21.7568 -13.0116)
      (xy 21.8438 -12.8958)
      (xy 21.9301 -12.7791)
      (xy 22.0157 -12.6617)
      (xy 22.1005 -12.5436)
      (xy 22.1846 -12.4248)
      (xy 22.268 -12.3053)
      (xy 22.3506 -12.1851)
      (xy 22.4324 -12.0642)
      (xy 22.5134 -11.9427)
      (xy 22.6336 -11.7594)
      (xy 22.791 -11.5128)
      (xy 22.9451 -11.264)
      (xy 23.096 -11.013)
      (xy 23.2435 -10.76)
      (xy 23.3876 -10.5051)
      (xy 23.5283 -10.2486)
      (xy 23.6655 -9.9904)
      (xy 23.7991 -9.7308)
      (xy 23.9291 -9.4698)
      (xy 24.0554 -9.2077)
      (xy 24.178 -8.9445)
      (xy 24.2968 -8.6804)
      (xy 24.4117 -8.4154)
      (xy 24.5228 -8.1499)
      (xy 24.6299 -7.8838)
      (xy 24.733 -7.6173)
      (xy 24.8319 -7.3505)
      (xy 24.9268 -7.0836)
      (xy 24.9725 -6.9502)
      (xy 25.0187 -6.8137)
      (xy 25.1069 -6.5484)
      (xy 25.1899 -6.2923)
      (xy 25.2679 -6.0451)
      (xy 25.3409 -5.8067)
      (xy 25.409 -5.5769)
      (xy 25.4721 -5.3555)
      (xy 25.5303 -5.1423)
      (xy 25.5837 -4.9372)
      (xy 25.6324 -4.74)
      (xy 25.6763 -4.5506)
      (xy 25.7154 -4.3687)
      (xy 25.75 -4.1941)
      (xy 25.7799 -4.0268)
      (xy 25.8053 -3.8665)
      (xy 25.8262 -3.713)
      (xy 25.8426 -3.5662)
      (xy 25.8545 -3.4259)
      (xy 25.8605 -3.3251)
      (xy 25.8632 -3.2597)
      (xy 25.8648 -3.1958)
      (xy 25.8654 -3.1334)
      (xy 25.8648 -3.0724)
      (xy 25.8632 -3.013)
      (xy 25.8606 -2.955)
      (xy 25.8569 -2.8984)
      (xy 25.8521 -2.8432)
      (xy 25.8464 -2.7894)
      (xy 25.8395 -2.7369)
      (xy 25.8317 -2.6858)
      (xy 25.8228 -2.6359)
      (xy 25.8129 -2.5874)
      (xy 25.802 -2.5401)
      (xy 25.79 -2.4941)
      (xy 25.7771 -2.4493)
      (xy 25.7632 -2.4056)
      (xy 25.7482 -2.3632)
      (xy 25.7323 -2.3219)
      (xy 25.7154 -2.2818)
      (xy 25.6976 -2.2428)
      (xy 25.6787 -2.2048)
      (xy 25.6589 -2.1679)
      (xy 25.6382 -2.1321)
      (xy 25.6165 -2.0973)
      (xy 25.5938 -2.0635)
      (xy 25.5702 -2.0307)
      (xy 25.558 -2.0147)
      (xy 25.5456 -1.9989)
      (xy 25.5202 -1.9679)
      (xy 25.4938 -1.9379)
      (xy 25.4665 -1.9088)
      (xy 25.4382 -1.8806)
      (xy 25.4091 -1.8532)
      (xy 25.3791 -1.8267)
      (xy 25.3481 -1.8009)
      (xy 25.3163 -1.7759)
      (xy 25.2836 -1.7518)
      (xy 25.25 -1.7283)
      (xy 25.2155 -1.7056)
      (xy 25.1802 -1.6835)
      (xy 25.1439 -1.6622)
      (xy 25.0881 -1.6313)
      (xy 25.0106 -1.5923)
      (xy 24.9297 -1.5557)
      (xy 24.8455 -1.5212)
      (xy 24.7581 -1.4887)
      (xy 24.6674 -1.458)
      (xy 24.5735 -1.4289)
      (xy 24.4765 -1.4012)
      (xy 24.3765 -1.3748)
      (xy 24.2733 -1.3494)
      (xy 24.1672 -1.325)
      (xy 24.0581 -1.3014)
      (xy 23.9462 -1.2783)
      (xy 23.7732 -1.2443)
      (xy 23.5323 -1.1994)
      (xy 23.2806 -1.1536)
      (xy 23.0184 -1.1055)
      (xy 22.7461 -1.0538)
      (xy 22.5352 -1.0116)
      (xy 22.3918 -0.9816)
      (xy 22.3191 -0.966)
      (xy 22.245 -0.95)
      (xy 22.0981 -0.9191)
      (xy 21.9526 -0.8896)
      (xy 21.8085 -0.8614)
      (xy 21.6656 -0.8344)
      (xy 21.524 -0.8087)
      (xy 21.3835 -0.7843)
      (xy 21.244 -0.761)
      (xy 21.0366 -0.7281)
      (xy 20.7632 -0.6883)
      (xy 20.4928 -0.6528)
      (xy 20.2247 -0.6214)
      (xy 19.9583 -0.5938)
      (xy 19.6931 -0.5698)
      (xy 19.4284 -0.5492)
      (xy 19.1638 -0.5317)
      (xy 18.8985 -0.5172)
      (xy 18.632 -0.5053)
      (xy 18.3638 -0.496)
      (xy 18.0931 -0.4889)
      (xy 17.8195 -0.4839)
      (xy 17.5424 -0.4807)
      (xy 17.261 -0.4791)
      (xy 16.975 -0.4789)
      (xy 16.5365 -0.4806)
      (xy 15.929 -0.4857)
      (xy 15.2918 -0.4924)
      (xy 14.6204 -0.4988)
      (xy 14.0902 -0.5023)
      (xy 13.7244 -0.5036)
      (xy 13.3473 -0.5039)
      (xy 12.9585 -0.5028)
      (xy 12.7589 -0.5017)
      (xy 12.5655 -0.5004)
      (xy 12.1828 -0.4966)
      (xy 11.6189 -0.4897)
      (xy 10.8942 -0.4805)
      (xy 10.3763 -0.4759)
      (xy 10.0437 -0.4748)
      (xy 9.723 -0.4758)
      (xy 9.4153 -0.4795)
      (xy 9.1942 -0.4844)
      (xy 9.051 -0.4887)
      (xy 8.9117 -0.4939)
      (xy 8.7763 -0.5001)
      (xy 8.645 -0.5074)
      (xy 8.518 -0.5158)
      (xy 8.3952 -0.5253)
      (xy 8.277 -0.5361)
      (xy 8.1633 -0.5483)
      (xy 8.0543 -0.5617)
      (xy 7.9502 -0.5767)
      (xy 7.8511 -0.5931)
      (xy 7.7571 -0.611)
      (xy 7.6683 -0.6306)
      (xy 7.5849 -0.6518)
      (xy 7.507 -0.6747)
      (xy 7.4347 -0.6995)
      (xy 7.3845 -0.7193)
      (xy 7.3527 -0.7331)
      (xy 7.3223 -0.7474)
      (xy 7.2935 -0.7621)
      (xy 7.2662 -0.7774)
      (xy 7.2404 -0.7931)
      (xy 7.2161 -0.8094)
      (xy 7.1935 -0.8262)
      (xy 7.1723 -0.8435)
      (xy 7.1528 -0.8614)
      (xy 7.1349 -0.8798)
      (xy 7.1186 -0.8988)
      (xy 7.1039 -0.9183)
      (xy 7.0909 -0.9383)
      (xy 7.0796 -0.959)
      (xy 7.0699 -0.9802)
      (xy 7.062 -1.0021)
      (xy 7.0558 -1.0245)
      (xy 7.0513 -1.0475)
      (xy 7.0485 -1.0712)
      (xy 7.0476 -1.0955)
      (xy 7.0484 -1.1204)
      (xy 7.051 -1.1459)
      (xy 7.0554 -1.1721)
      (xy 7.0617 -1.1989)
      (xy 7.0698 -1.2264)
      (xy 7.0798 -1.2545)
      (xy 7.0916 -1.2834)
      (xy 7.1054 -1.3129)
      (xy 7.121 -1.3431)
      (xy 7.1386 -1.374)
      (xy 7.1581 -1.4056)
      (xy 7.1796 -1.4379)
      (xy 7.2031 -1.4709)
      (xy 7.2286 -1.5047)
      (xy 7.256 -1.5392)
      (xy 7.2855 -1.5744)
      (xy 7.3171 -1.6104)
      (xy 7.368 -1.6658)
      (xy 7.4435 -1.7424)
      (xy 7.5274 -1.8221)
      (xy 7.62 -1.905)
      (xy 7.7212 -1.9912)
      (xy 7.8313 -2.0808)
      (xy 7.9504 -2.1737)
      (xy 8.0785 -2.27)
      (xy 8.1464 -2.3197)
      (xy 8.2601 -2.4864)
      (xy 8.4743 -2.7968)
      (xy 8.6226 -3.0147)
      (xy 8.7157 -3.1552)
      (xy 8.8035 -3.2924)
      (xy 8.8656 -3.3936)
      (xy 8.9053 -3.4605)
      (xy 8.9435 -3.5271)
      (xy 8.9802 -3.5935)
      (xy 9.0154 -3.6598)
      (xy 9.0489 -3.726)
      (xy 9.0808 -3.7924)
      (xy 9.1111 -3.8589)
      (xy 9.1396 -3.9257)
      (xy 9.1664 -3.9929)
      (xy 9.1914 -4.0606)
      (xy 9.2145 -4.129)
      (xy 9.2358 -4.198)
      (xy 9.2553 -4.2679)
      (xy 9.2728 -4.3387)
      (xy 9.2883 -4.4106)
      (xy 9.3018 -4.4835)
      (xy 9.3132 -4.5578)
      (xy 9.3181 -4.5955)
      (xy 9.323 -4.6322)
      (xy 9.3309 -4.708)
      (xy 9.3366 -4.7865)
      (xy 9.3401 -4.8678)
      (xy 9.3416 -4.952)
      (xy 9.3411 -5.0389)
      (xy 9.3388 -5.1288)
      (xy 9.3346 -5.2216)
      (xy 9.3288 -5.3174)
      (xy 9.3213 -5.4161)
      (xy 9.3123 -5.5179)
      (xy 9.3019 -5.6227)
      (xy 9.2839 -5.7854)
      (xy 9.2554 -6.0139)
      (xy 9.2227 -6.2553)
      (xy 9.1865 -6.5099)
      (xy 9.1275 -6.9153)
      (xy 9.064 -7.3554)
      (xy 9.0208 -7.6654)
      (xy 8.9775 -7.9901)
      (xy 8.935 -8.3295)
      (xy 8.9142 -8.5056)
      (xy 8.9025 -8.6043)
      (xy 8.8766 -8.8027)
      (xy 8.8481 -9.0019)
      (xy 8.8172 -9.202)
      (xy 8.7843 -9.4027)
      (xy 8.7497 -9.604)
      (xy 8.7135 -9.8057)
      (xy 8.676 -10.0078)
      (xy 8.6181 -10.3113)
      (xy 8.539 -10.7161)
      (xy 8.4597 -11.1203)
      (xy 8.3824 -11.523)
      (xy 8.3272 -11.8233)
      (xy 8.2921 -12.0226)
      (xy 8.2587 -12.221)
      (xy 8.2273 -12.4184)
      (xy 8.1982 -12.6146)
      (xy 8.1716 -12.8097)
      (xy 8.1478 -13.0034)
      (xy 8.1271 -13.1956)
      (xy 8.1097 -13.3862)
      (xy 8.0959 -13.5752)
      (xy 8.0883 -13.7157)
      (xy 8.0843 -13.8088)
      (xy 8.0815 -13.9014)
      (xy 8.0797 -13.9936)
      (xy 8.079 -14.0852)
      (xy 8.0795 -14.1763)
      (xy 8.0812 -14.2668)
      (xy 8.0841 -14.3568)
      (xy 8.0883 -14.4463)
      (xy 8.0937 -14.5351)
      (xy 8.1005 -14.6233)
      (xy 8.1087 -14.711)
      (xy 8.1133 -14.7545)
      (xy 8.1188 -14.8034)
      (xy 8.1315 -14.8997)
      (xy 8.146 -14.9945)
      (xy 8.1623 -15.0876)
      (xy 8.1804 -15.179)
      (xy 8.2002 -15.2689)
      (xy 8.2217 -15.3572)
      (xy 8.2447 -15.4438)
      (xy 8.2581 -15.49)
      (xy 20.0802 -13.6278)
      (xy 20.0574 -13.6197)
      (xy 20.0336 -13.6108)
      (xy 20.0104 -13.6009)
      (xy 19.9877 -13.5899)
      (xy 19.9657 -13.578)
      (xy 19.9442 -13.5652)
      (xy 19.9234 -13.5514)
      (xy 19.9033 -13.5367)
      (xy 19.8839 -13.5212)
      (xy 19.8653 -13.5048)
      (xy 19.8475 -13.4876)
      (xy 19.8305 -13.4695)
      (xy 19.8144 -13.4507)
      (xy 19.7993 -13.4312)
      (xy 19.7851 -13.4108)
      (xy 19.7718 -13.3898)
      (xy 19.7597 -13.3681)
      (xy 19.7485 -13.3457)
      (xy 19.7385 -13.3227)
      (xy 19.7296 -13.2991)
      (xy 19.7219 -13.2749)
      (xy 19.7154 -13.2501)
      (xy 19.7102 -13.2247)
      (xy 19.7062 -13.1988)
      (xy 19.7036 -13.1725)
      (xy 19.7023 -13.1456)
      (xy 19.7023 -13.132)
      (xy 19.7023 -13.1301)
      (xy 19.7033 -13.0651)
      (xy 19.7061 -12.9351)
      (xy 19.7099 -12.8051)
      (xy 19.7147 -12.6751)
      (xy 19.7206 -12.5452)
      (xy 19.7274 -12.4154)
      (xy 19.7353 -12.2856)
      (xy 19.7441 -12.1559)
      (xy 19.754 -12.0262)
      (xy 19.7649 -11.8967)
      (xy 19.7767 -11.7672)
      (xy 19.7896 -11.6378)
      (xy 19.8035 -11.5085)
      (xy 19.8184 -11.3793)
      (xy 19.8342 -11.2502)
      (xy 19.8511 -11.1213)
      (xy 19.86 -11.0568)
      (xy 19.8431 -11.0607)
      (xy 19.8262 -11.0645)
      (xy 19.3069 -11.1844)
      (xy 18.8083 -11.2995)
      (xy 18.7163 -11.3213)
      (xy 18.5778 -11.3531)
      (xy 18.5084 -11.3669)
      (xy 18.462 -11.375)
      (xy 18.4388 -11.3786)
      (xy 18.4077 -11.3839)
      (xy 18.3453 -11.3927)
      (xy 18.2826 -11.3997)
      (xy 18.2198 -11.4046)
      (xy 18.1883 -11.4062)
      (xy 18.1556 -11.4057)
      (xy 18.0903 -11.4021)
      (xy 18.0254 -11.3953)
      (xy 17.9608 -11.3853)
      (xy 17.9287 -11.3791)
      (xy 17.9144 -11.3763)
      (xy 17.886 -11.3697)
      (xy 17.8581 -11.3615)
      (xy 17.8306 -11.3519)
      (xy 17.8171 -11.3465)
      (xy 17.7886 -11.3359)
      (xy 17.7326 -11.3127)
      (xy 17.6776 -11.287)
      (xy 17.6238 -11.2588)
      (xy 17.5975 -11.2437)
      (xy 17.5562 -11.2163)
      (xy 17.4756 -11.159)
      (xy 17.397 -11.0989)
      (xy 17.3206 -11.036)
      (xy 17.2833 -11.0034)
      (xy 17.184 -10.9203)
      (xy 17.0848 -10.8369)
      (xy 16.2623 -10.1494)
      (xy 16.062 -9.982)
      (xy 15.8617 -9.8152)
      (xy 15.8352 -9.8583)
      (xy 15.8099 -9.9021)
      (xy 15.4628 -10.5022)
      (xy 14.6676 -11.8777)
      (xy 14.4831 -12.194)
      (xy 14.4762 -12.2056)
      (xy 14.4616 -12.2278)
      (xy 14.4461 -12.2491)
      (xy 14.4297 -12.2693)
      (xy 14.4124 -12.2886)
      (xy 14.3943 -12.3069)
      (xy 14.3755 -12.3241)
      (xy 14.3559 -12.3403)
      (xy 14.3356 -12.3554)
      (xy 14.3147 -12.3695)
      (xy 14.2932 -12.3825)
      (xy 14.2712 -12.3944)
      (xy 14.2487 -12.4053)
      (xy 14.2257 -12.415)
      (xy 14.2023 -12.4236)
      (xy 14.1785 -12.4311)
      (xy 14.1544 -12.4374)
      (xy 14.13 -12.4425)
      (xy 14.1054 -12.4465)
      (xy 14.0806 -12.4494)
      (xy 14.0556 -12.451)
      (xy 14.0306 -12.4514)
      (xy 14.0054 -12.4506)
      (xy 13.9803 -12.4486)
      (xy 13.9552 -12.4454)
      (xy 13.9302 -12.4409)
      (xy 13.9053 -12.4351)
      (xy 13.8806 -12.4281)
      (xy 13.8561 -12.4198)
      (xy 13.8319 -12.4101)
      (xy 13.8079 -12.3992)
      (xy 13.7843 -12.387)
      (xy 13.7727 -12.3803)
      (xy 13.7618 -12.3738)
      (xy 13.7407 -12.3599)
      (xy 13.7204 -12.3451)
      (xy 13.7008 -12.3294)
      (xy 13.6821 -12.3128)
      (xy 13.6642 -12.2954)
      (xy 13.6472 -12.2771)
      (xy 13.6311 -12.2581)
      (xy 13.6159 -12.2384)
      (xy 13.6016 -12.2179)
      (xy 13.5884 -12.1968)
      (xy 13.5761 -12.175)
      (xy 13.5649 -12.1527)
      (xy 13.5547 -12.1297)
      (xy 13.5456 -12.1063)
      (xy 13.5377 -12.0823)
      (xy 13.5341 -12.0701)
      (xy 13.531 -12.0574)
      (xy 13.5258 -12.0319)
      (xy 13.5218 -12.0063)
      (xy 13.519 -11.9806)
      (xy 13.5175 -11.9548)
      (xy 13.5172 -11.929)
      (xy 13.5181 -11.9033)
      (xy 13.5202 -11.8777)
      (xy 13.5235 -11.8522)
      (xy 13.528 -11.8269)
      (xy 13.5338 -11.8019)
      (xy 13.5407 -11.777)
      (xy 13.5488 -11.7525)
      (xy 13.558 -11.7284)
      (xy 13.5685 -11.7046)
      (xy 13.5801 -11.6813)
      (xy 13.5864 -11.6698)
      (xy 14.0306 -10.9024)
      (xy 14.7853 -9.5954)
      (xy 15.0169 -9.1952)
      (xy 15.0384 -9.157)
      (xy 15.0608 -9.1196)
      (xy 15.0691 -9.106)
      (xy 15.0865 -9.0794)
      (xy 15.1048 -9.0535)
      (xy 15.1239 -9.0282)
      (xy 15.1439 -9.0037)
      (xy 15.1648 -8.98)
      (xy 15.1864 -8.957)
      (xy 15.2088 -8.9348)
      (xy 15.232 -8.9133)
      (xy 15.2559 -8.8928)
      (xy 15.2806 -8.873)
      (xy 15.3059 -8.8541)
      (xy 15.3319 -8.8361)
      (xy 15.3586 -8.819)
      (xy 15.3859 -8.8029)
      (xy 15.4138 -8.7876)
      (xy 15.428 -8.7804)
      (xy 15.4485 -8.7707)
      (xy 15.49 -8.753)
      (xy 15.5323 -8.7372)
      (xy 15.5752 -8.7235)
      (xy 15.6188 -8.7118)
      (xy 15.6628 -8.7022)
      (xy 15.7073 -8.6946)
      (xy 15.7521 -8.6892)
      (xy 15.7747 -8.6873)
      (xy 15.7906 -8.6865)
      (xy 15.8224 -8.6858)
      (xy 15.8542 -8.6863)
      (xy 15.8859 -8.6881)
      (xy 15.9175 -8.691)
      (xy 15.949 -8.6952)
      (xy 15.9803 -8.7006)
      (xy 16.0114 -8.7072)
      (xy 16.0269 -8.711)
      (xy 16.0474 -8.7159)
      (xy 16.0874 -8.7277)
      (xy 16.1264 -8.7421)
      (xy 16.1644 -8.7586)
      (xy 16.2014 -8.7772)
      (xy 16.2376 -8.7976)
      (xy 16.2731 -8.8196)
      (xy 16.3078 -8.843)
      (xy 16.3419 -8.8676)
      (xy 16.3754 -8.8931)
      (xy 16.4248 -8.9327)
      (xy 16.5212 -9.0145)
      (xy 16.5843 -9.0682)
      (xy 17.1115 -9.5075)
      (xy 18.0175 -10.2658)
      (xy 18.0297 -10.2757)
      (xy 18.042 -10.2857)
      (xy 18.0568 -10.2963)
      (xy 18.0871 -10.3167)
      (xy 18.1181 -10.3359)
      (xy 18.1498 -10.3539)
      (xy 18.1659 -10.3624)
      (xy 18.1849 -10.3627)
      (xy 18.223 -10.3617)
      (xy 18.2419 -10.3606)
      (xy 18.3175 -10.3459)
      (xy 18.4683 -10.3134)
      (xy 18.5433 -10.2962)
      (xy 19.0634 -10.1763)
      (xy 19.5858 -10.0555)
      (xy 19.6376 -10.0432)
      (xy 19.7181 -10.0233)
      (xy 19.7727 -10.0105)
      (xy 19.8276 -9.9992)
      (xy 19.8824 -9.9902)
      (xy 19.9231 -9.9856)
      (xy 19.9501 -9.9837)
      (xy 19.9769 -9.9829)
      (xy 20.0033 -9.9832)
      (xy 20.0164 -9.9839)
      (xy 20.0447 -9.9858)
      (xy 20.1007 -9.9923)
      (xy 20.1559 -10.0022)
      (xy 20.2101 -10.0154)
      (xy 20.2632 -10.0317)
      (xy 20.3151 -10.0511)
      (xy 20.3656 -10.0736)
      (xy 20.4146 -10.099)
      (xy 20.462 -10.1273)
      (xy 20.5076 -10.1584)
      (xy 20.5514 -10.1922)
      (xy 20.5931 -10.2286)
      (xy 20.6327 -10.2676)
      (xy 20.67 -10.3091)
      (xy 20.7048 -10.353)
      (xy 20.7372 -10.3992)
      (xy 20.7523 -10.4232)
      (xy 20.7655 -10.4454)
      (xy 20.7899 -10.4909)
      (xy 20.8117 -10.5376)
      (xy 20.8309 -10.5853)
      (xy 20.8475 -10.6339)
      (xy 20.8614 -10.6835)
      (xy 20.8726 -10.7337)
      (xy 20.881 -10.7846)
      (xy 20.8841 -10.8103)
      (xy 20.8877 -10.8326)
      (xy 20.8932 -10.8775)
      (xy 20.8964 -10.9226)
      (xy 20.8973 -10.9678)
      (xy 20.8968 -10.9904)
      (xy 20.8937 -11.0253)
      (xy 20.8851 -11.0949)
      (xy 20.8697 -11.1989)
      (xy 20.8667 -11.2198)
      (xy 20.8546 -11.3169)
      (xy 20.8401 -11.4416)
      (xy 20.8265 -11.5664)
      (xy 20.8139 -11.6912)
      (xy 20.8024 -11.8162)
      (xy 20.7918 -11.9412)
      (xy 20.7822 -12.0663)
      (xy 20.7736 -12.1915)
      (xy 20.766 -12.3168)
      (xy 20.7594 -12.4421)
      (xy 20.7538 -12.5675)
      (xy 20.7491 -12.6929)
      (xy 20.7455 -12.8183)
      (xy 20.7429 -12.9438)
      (xy 20.7413 -13.0693)
      (xy 20.7409 -13.1321)
      (xy 20.7406 -13.145)
      (xy 20.739 -13.1706)
      (xy 20.7362 -13.196)
      (xy 20.7322 -13.2211)
      (xy 20.7271 -13.246)
      (xy 20.7208 -13.2706)
      (xy 20.7133 -13.2948)
      (xy 20.7047 -13.3186)
      (xy 20.6951 -13.3419)
      (xy 20.6843 -13.3648)
      (xy 20.6725 -13.3872)
      (xy 20.6596 -13.4091)
      (xy 20.6456 -13.4303)
      (xy 20.6306 -13.4509)
      (xy 20.6147 -13.4708)
      (xy 20.5977 -13.4901)
      (xy 20.5888 -13.4994)
      (xy 20.5796 -13.5083)
      (xy 20.5604 -13.5255)
      (xy 20.5406 -13.5416)
      (xy 20.52 -13.5567)
      (xy 20.4988 -13.5707)
      (xy 20.477 -13.5837)
      (xy 20.4546 -13.5956)
      (xy 20.4317 -13.6064)
      (xy 20.4083 -13.6161)
      (xy 20.3845 -13.6246)
      (xy 20.3603 -13.632)
      (xy 20.3357 -13.6383)
      (xy 20.3107 -13.6433)
      (xy 20.2855 -13.6472)
      (xy 20.2601 -13.6498)
      (xy 20.2345 -13.6512)
      (xy 20.2216 -13.6514)
      (xy 20.2216 -13.6513)
      (xy 20.2129 -13.6544)
    )

    (stroke (width 0) (type solid)) (fill solid) (layer "F.SilkS") (tstamp 8e612b2d-0468-43d4-b94b-fa0b90832251))
  (fp_poly
    (pts
      (xy 9.2899 -19.2304)
      (xy 9.2136 -19.23)
      (xy 9.0617 -19.2273)
      (xy 8.9107 -19.2224)
      (xy 8.7607 -19.2154)
      (xy 8.6116 -19.2061)
      (xy 8.4635 -19.1946)
      (xy 8.3165 -19.1809)
      (xy 8.1705 -19.1649)
      (xy 8.0256 -19.1467)
      (xy 7.8819 -19.1263)
      (xy 7.7392 -19.1036)
      (xy 7.5978 -19.0786)
      (xy 7.4576 -19.0514)
      (xy 7.3186 -19.0219)
      (xy 7.1809 -18.9901)
      (xy 7.0445 -18.956)
      (xy 6.9768 -18.9381)
      (xy 6.9229 -18.9234)
      (xy 6.8157 -18.8929)
      (xy 6.7094 -18.8609)
      (xy 6.604 -18.8275)
      (xy 6.4995 -18.7927)
      (xy 6.396 -18.7564)
      (xy 6.2933 -18.7186)
      (xy 6.1916 -18.6794)
      (xy 6.0908 -18.6386)
      (xy 5.9911 -18.5964)
      (xy 5.8923 -18.5528)
      (xy 5.7945 -18.5076)
      (xy 5.6977 -18.4609)
      (xy 5.6019 -18.4127)
      (xy 5.5072 -18.3631)
      (xy 5.4135 -18.3119)
      (xy 5.3209 -18.2592)
      (xy 5.2294 -18.2049)
      (xy 5.139 -18.1492)
      (xy 5.0497 -18.0919)
      (xy 4.9615 -18.033)
      (xy 4.8744 -17.9726)
      (xy 4.7885 -17.9107)
      (xy 4.7038 -17.8472)
      (xy 4.6202 -17.7821)
      (xy 4.5379 -17.7155)
      (xy 4.4567 -17.6473)
      (xy 4.3768 -17.5775)
      (xy 4.2981 -17.5061)
      (xy 4.2206 -17.4331)
      (xy 4.1445 -17.3586)
      (xy 4.0695 -17.2824)
      (xy 3.9959 -17.2046)
      (xy 3.9236 -17.1253)
      (xy 3.8526 -17.0442)
      (xy 3.783 -16.9616)
      (xy 3.7146 -16.8773)
      (xy 3.6477 -16.7914)
      (xy 3.5821 -16.7039)
      (xy 3.5179 -16.6147)
      (xy 3.4551 -16.5239)
      (xy 3.3938 -16.4314)
      (xy 3.3338 -16.3372)
      (xy 3.2753 -16.2414)
      (xy 3.2183 -16.1438)
      (xy 3.1627 -16.0447)
      (xy 3.1086 -15.9438)
      (xy 3.0561 -15.8412)
      (xy 3.005 -15.7369)
      (xy 2.9554 -15.631)
      (xy 2.9074 -15.5233)
      (xy 2.861 -15.4139)
      (xy 2.8161 -15.3028)
      (xy 2.7728 -15.1899)
      (xy 2.7312 -15.0753)
      (xy 2.6911 -14.959)
      (xy 2.6526 -14.841)
      (xy 2.6158 -14.7212)
      (xy 2.5807 -14.5996)
      (xy 2.5472 -14.4763)
      (xy 2.5154 -14.3512)
      (xy 2.4852 -14.2244)
      (xy 2.4568 -14.0957)
      (xy 2.4301 -13.9653)
      (xy 2.4175 -13.8994)
      (xy 2.4048 -13.7656)
      (xy 2.3754 -13.4854)
      (xy 2.3417 -13.1911)
      (xy 2.304 -12.8838)
      (xy 2.2626 -12.5648)
      (xy 2.21783 -12.2352)
      (xy 2.17 -11.8961)
      (xy 2.11941 -11.5488)
      (xy 2.06638 -11.1943)
      (xy 2.01121 -10.8339)
      (xy 1.92533 -10.2851)
      (xy 1.80597 -9.5426)
      (xy 1.6837 -8.7973)
      (xy 1.49989 -7.6919)
      (xy 1.32441 -6.6377)
      (xy 1.21548 -5.9744)
      (xy 1.11612 -5.3549)
      (xy 1.04982 -4.9265)
      (xy 1.00966 -4.6583)
      (xy 0.9733 -4.4063)
      (xy 0.94105 -4.1717)
      (xy 0.91322 -3.9557)
      (xy 0.89013 -3.7593)
      (xy 0.88067 -3.6697)
      (xy 0.87903 -3.6526)
      (xy 0.87712 -3.6192)
      (xy 0.8768 -3.5866)
      (xy 0.87805 -3.5546)
      (xy 0.88084 -3.5232)
      (xy 0.88515 -3.4924)
      (xy 0.89093 -3.4621)
      (xy 0.89817 -3.4322)
      (xy 0.90684 -3.4028)
      (xy 0.9169 -3.3736)
      (xy 0.92832 -3.3447)
      (xy 0.94109 -3.316)
      (xy 0.95516 -3.2875)
      (xy 0.97051 -3.259)
      (xy 0.99573 -3.2163)
      (xy 1.01435 -3.1878)
      (xy 1.03371 -3.1593)
      (xy 1.07628 -3.1026)
      (xy 1.12308 -3.0461)
      (xy 1.17363 -2.9897)
      (xy 1.22747 -2.9333)
      (xy 1.28411 -2.877)
      (xy 1.3431 -2.8205)
      (xy 1.40395 -2.7639)
      (xy 1.43497 -2.7356)
      (xy 1.45959 -2.7142)
      (xy 1.50974 -2.6719)
      (xy 1.56097 -2.63)
      (xy 1.61329 -2.5885)
      (xy 1.66668 -2.5475)
      (xy 1.72113 -2.507)
      (xy 1.80465 -2.447)
      (xy 1.91983 -2.3687)
      (xy 2.03909 -2.2922)
      (xy 2.16238 -2.2175)
      (xy 2.2896 -2.1446)
      (xy 2.4207 -2.0735)
      (xy 2.5556 -2.0041)
      (xy 2.6943 -1.9365)
      (xy 2.8366 -1.8706)
      (xy 2.9826 -1.8065)
      (xy 3.132 -1.7441)
      (xy 3.2849 -1.6834)
      (xy 3.4412 -1.6244)
      (xy 3.6008 -1.5672)
      (xy 3.7636 -1.5116)
      (xy 3.9296 -1.4577)
      (xy 4.0987 -1.4054)
      (xy 4.2708 -1.3549)
      (xy 4.4459 -1.3059)
      (xy 4.6239 -1.2587)
      (xy 4.8047 -1.213)
      (xy 4.9883 -1.169)
      (xy 5.1745 -1.1265)
      (xy 5.3633 -1.0857)
      (xy 5.5546 -1.0465)
      (xy 5.7484 -1.0088)
      (xy 5.9446 -0.9727)
      (xy 6.1432 -0.9382)
      (xy 6.3439 -0.9052)
      (xy 6.4452 -0.8894)
      (xy 6.5469 -0.8738)
      (xy 6.752 -0.8439)
      (xy 6.9591 -0.8154)
      (xy 7.1682 -0.7884)
      (xy 7.3791 -0.7628)
      (xy 7.5919 -0.7387)
      (xy 7.8063 -0.7159)
      (xy 8.0225 -0.6945)
      (xy 8.2403 -0.6745)
      (xy 8.4595 -0.6558)
      (xy 8.6803 -0.6385)
      (xy 8.9024 -0.6225)
      (xy 9.1258 -0.6078)
      (xy 9.3505 -0.5943)
      (xy 9.5764 -0.5821)
      (xy 9.8034 -0.5712)
      (xy 10.0314 -0.5615)
      (xy 10.2603 -0.553)
      (xy 10.4902 -0.5457)
      (xy 10.7209 -0.5395)
      (xy 10.9523 -0.5345)
      (xy 11.1844 -0.5307)
      (xy 11.4172 -0.528)
      (xy 11.6504 -0.5263)
      (xy 11.8842 -0.5258)
      (xy 12.1183 -0.5263)
      (xy 12.3528 -0.5279)
      (xy 12.5875 -0.5306)
      (xy 12.94 -0.5363)
      (xy 13.4102 -0.5475)
      (xy 13.6452 -0.5547)
      (xy 13.8761 -0.5625)
      (xy 14.3374 -0.5809)
      (xy 14.7974 -0.6028)
      (xy 15.2556 -0.628)
      (xy 15.7114 -0.6563)
      (xy 16.1644 -0.6877)
      (xy 16.614 -0.722)
      (xy 17.0596 -0.7591)
      (xy 17.5007 -0.7987)
      (xy 17.9368 -0.8408)
      (xy 18.3673 -0.8852)
      (xy 18.7917 -0.9317)
      (xy 19.2095 -0.9803)
      (xy 19.6201 -1.0308)
      (xy 20.023 -1.083)
      (xy 20.4176 -1.1368)
      (xy 20.8035 -1.1921)
      (xy 21.18 -1.2486)
      (xy 21.5466 -1.3064)
      (xy 21.9029 -1.3651)
      (xy 22.2482 -1.4248)
      (xy 22.5821 -1.4852)
      (xy 22.9039 -1.5461)
      (xy 23.2132 -1.6076)
      (xy 23.5094 -1.6693)
      (xy 23.792 -1.7312)
      (xy 24.0604 -1.7931)
      (xy 24.3141 -1.8549)
      (xy 24.5526 -1.9164)
      (xy 24.7753 -1.9775)
      (xy 24.9312 -2.023)
      (xy 25.0302 -2.0531)
      (xy 25.125 -2.0831)
      (xy 25.2154 -2.1128)
      (xy 25.2589 -2.1276)
      (xy 25.2641 -2.2168)
      (xy 25.2729 -2.3948)
      (xy 25.2797 -2.5721)
      (xy 25.2844 -2.7487)
      (xy 25.2871 -2.9246)
      (xy 25.2878 -3.0998)
      (xy 25.2866 -3.2742)
      (xy 25.2833 -3.448)
      (xy 25.2782 -3.6211)
      (xy 25.271 -3.7934)
      (xy 25.262 -3.965)
      (xy 25.2511 -4.1359)
      (xy 25.2382 -4.306)
      (xy 25.2235 -4.4754)
      (xy 25.2069 -4.6441)
      (xy 25.1885 -4.812)
      (xy 25.1683 -4.9792)
      (xy 25.1462 -5.1456)
      (xy 25.1223 -5.3113)
      (xy 25.0967 -5.4762)
      (xy 25.0692 -5.6403)
      (xy 25.0401 -5.8037)
      (xy 25.0091 -5.9663)
      (xy 24.9765 -6.1281)
      (xy 24.9421 -6.2891)
      (xy 24.906 -6.4494)
      (xy 24.8683 -6.6088)
      (xy 24.8289 -6.7675)
      (xy 24.7878 -6.9254)
      (xy 24.7451 -7.0824)
      (xy 24.7008 -7.2387)
      (xy 24.6549 -7.3941)
      (xy 24.6074 -7.5488)
      (xy 24.5583 -7.7026)
      (xy 24.5076 -7.8556)
      (xy 24.4554 -8.0078)
      (xy 24.4016 -8.1591)
      (xy 24.3464 -8.3096)
      (xy 24.2896 -8.4593)
      (xy 24.2314 -8.6081)
      (xy 24.1717 -8.756)
      (xy 24.1105 -8.9032)
      (xy 24.0479 -9.0494)
      (xy 23.9838 -9.1948)
      (xy 23.9184 -9.3394)
      (xy 23.8515 -9.483)
      (xy 23.7833 -9.6258)
      (xy 23.7137 -9.7677)
      (xy 23.6427 -9.9088)
      (xy 23.5704 -10.0489)
      (xy 23.4968 -10.1882)
      (xy 23.4219 -10.3266)
      (xy 23.3457 -10.4641)
      (xy 23.2682 -10.6006)
      (xy 23.1894 -10.7363)
      (xy 23.1094 -10.8711)
      (xy 23.0282 -11.0049)
      (xy 22.9457 -11.1378)
      (xy 22.8621 -11.2698)
      (xy 22.7773 -11.4009)
      (xy 22.6912 -11.5311)
      (xy 22.6041 -11.6603)
      (xy 22.5158 -11.7886)
      (xy 22.4263 -11.9159)
      (xy 22.3358 -12.0423)
      (xy 22.2441 -12.1678)
      (xy 22.1514 -12.2922)
      (xy 22.0576 -12.4158)
      (xy 21.9627 -12.5383)
      (xy 21.8668 -12.6599)
      (xy 21.7699 -12.7806)
      (xy 21.672 -12.9002)
      (xy 21.5731 -13.0189)
      (xy 21.4732 -13.1366)
      (xy 21.3723 -13.2533)
      (xy 21.2705 -13.369)
      (xy 21.1678 -13.4837)
      (xy 21.0641 -13.5974)
      (xy 20.9596 -13.7101)
      (xy 20.8541 -13.8218)
      (xy 20.7478 -13.9325)
      (xy 20.6407 -14.0422)
      (xy 20.5326 -14.1509)
      (xy 20.4238 -14.2585)
      (xy 20.3141 -14.3651)
      (xy 20.2037 -14.4707)
      (xy 20.0924 -14.5752)
      (xy 19.9804 -14.6787)
      (xy 19.8677 -14.7811)
      (xy 19.7542 -14.8825)
      (xy 19.64 -14.9829)
      (xy 19.525 -15.0821)
      (xy 19.4094 -15.1804)
      (xy 19.2931 -15.2775)
      (xy 19.1762 -15.3736)
      (xy 19.0585 -15.4686)
      (xy 18.9403 -15.5626)
      (xy 18.8214 -15.6554)
      (xy 18.702 -15.7472)
      (xy 18.5819 -15.8379)
      (xy 18.4613 -15.9274)
      (xy 18.3401 -16.0159)
      (xy 18.2184 -16.1033)
      (xy 18.0961 -16.1896)
      (xy 17.9734 -16.2747)
      (xy 17.8501 -16.3588)
      (xy 17.7263 -16.4417)
      (xy 17.6021 -16.5235)
      (xy 17.4775 -16.6042)
      (xy 17.3523 -16.6838)
      (xy 17.2268 -16.7622)
      (xy 17.1009 -16.8394)
      (xy 16.9745 -16.9156)
      (xy 16.8478 -16.9905)
      (xy 16.7207 -17.0644)
      (xy 16.5933 -17.137)
      (xy 16.4656 -17.2086)
      (xy 16.3375 -17.2789)
      (xy 16.2091 -17.3481)
      (xy 16.0804 -17.4161)
      (xy 15.9515 -17.4829)
      (xy 15.8223 -17.5486)
      (xy 15.6929 -17.613)
      (xy 15.5632 -17.6763)
      (xy 15.4333 -17.7384)
      (xy 15.3032 -17.7993)
      (xy 15.1729 -17.8589)
      (xy 15.0425 -17.9174)
      (xy 14.9772 -17.9461)
      (xy 14.8869 -17.9855)
      (xy 14.7062 -18.0623)
      (xy 14.5253 -18.1368)
      (xy 14.3442 -18.2089)
      (xy 14.163 -18.2786)
      (xy 13.9817 -18.346)
      (xy 13.8003 -18.4109)
      (xy 13.619 -18.4735)
      (xy 13.4377 -18.5336)
      (xy 13.2565 -18.5914)
      (xy 13.0755 -18.6467)
      (xy 12.8946 -18.6996)
      (xy 12.7139 -18.75)
      (xy 12.5334 -18.7979)
      (xy 12.3533 -18.8435)
      (xy 12.1734 -18.8865)
      (xy 11.994 -18.927)
      (xy 11.8149 -18.9651)
      (xy 11.6363 -19.0006)
      (xy 11.4582 -19.0336)
      (xy 11.2806 -19.0642)
      (xy 11.1036 -19.0921)
      (xy 10.9272 -19.1176)
      (xy 10.7515 -19.1404)
      (xy 10.5764 -19.1608)
      (xy 10.4021 -19.1785)
      (xy 10.2286 -19.1937)
      (xy 10.0558 -19.2062)
      (xy 9.884 -19.2162)
      (xy 9.713 -19.2236)
      (xy 9.543 -19.2283)
      (xy 9.374 -19.2304)
      (xy 9.2915 -19.2304)
      (xy 12.1625 -19.2459)
      (xy 12.2517 -19.2258)
      (xy 12.4358 -19.1816)
      (xy 12.6202 -19.1349)
      (xy 12.8049 -19.0857)
      (xy 12.9897 -19.034)
      (xy 13.1747 -18.9799)
      (xy 13.3598 -18.9232)
      (xy 13.545 -18.8641)
      (xy 13.7302 -18.8025)
      (xy 13.9154 -18.7385)
      (xy 14.1006 -18.6721)
      (xy 14.2857 -18.6032)
      (xy 14.4707 -18.532)
      (xy 14.6555 -18.4583)
      (xy 14.8401 -18.3823)
      (xy 15.0245 -18.3039)
      (xy 15.1165 -18.2638)
      (xy 15.1835 -18.2343)
      (xy 15.3172 -18.1744)
      (xy 15.4508 -18.1132)
      (xy 15.5841 -18.0507)
      (xy 15.7173 -17.987)
      (xy 15.8503 -17.9221)
      (xy 15.983 -17.856)
      (xy 16.1154 -17.7886)
      (xy 16.2476 -17.72)
      (xy 16.3796 -17.6502)
      (xy 16.5112 -17.5792)
      (xy 16.6425 -17.5069)
      (xy 16.7735 -17.4335)
      (xy 16.9041 -17.3589)
      (xy 17.0344 -17.2831)
      (xy 17.1643 -17.206)
      (xy 17.2938 -17.1279)
      (xy 17.423 -17.0485)
      (xy 17.5516 -16.9679)
      (xy 17.6799 -16.8862)
      (xy 17.8077 -16.8033)
      (xy 17.935 -16.7192)
      (xy 18.0619 -16.634)
      (xy 18.1883 -16.5476)
      (xy 18.3141 -16.4601)
      (xy 18.4394 -16.3714)
      (xy 18.5642 -16.2816)
      (xy 18.6884 -16.1906)
      (xy 18.812 -16.0985)
      (xy 18.935 -16.0053)
      (xy 19.0575 -15.911)
      (xy 19.1793 -15.8155)
      (xy 19.3004 -15.7189)
      (xy 19.421 -15.6212)
      (xy 19.5408 -15.5224)
      (xy 19.66 -15.4225)
      (xy 19.7784 -15.3215)
      (xy 19.8962 -15.2193)
      (xy 20.0132 -15.1161)
      (xy 20.1294 -15.0119)
      (xy 20.2449 -14.9065)
      (xy 20.3596 -14.8)
      (xy 20.4736 -14.6925)
      (xy 20.5867 -14.5839)
      (xy 20.699 -14.4742)
      (xy 20.8104 -14.3635)
      (xy 20.921 -14.2517)
      (xy 21.0307 -14.1389)
      (xy 21.1396 -14.025)
      (xy 21.2475 -13.9101)
      (xy 21.3545 -13.7941)
      (xy 21.4606 -13.6771)
      (xy 21.5657 -13.559)
      (xy 21.6699 -13.44)
      (xy 21.7731 -13.3199)
      (xy 21.8753 -13.1988)
      (xy 21.9764 -13.0766)
      (xy 22.0766 -12.9535)
      (xy 22.1757 -12.8294)
      (xy 22.2737 -12.7042)
      (xy 22.3707 -12.5781)
      (xy 22.4666 -12.4509)
      (xy 22.5613 -12.3228)
      (xy 22.655 -12.1937)
      (xy 22.7475 -12.0636)
      (xy 22.8389 -11.9325)
      (xy 22.9291 -11.8005)
      (xy 23.0181 -11.6675)
      (xy 23.1059 -11.5335)
      (xy 23.1925 -11.3986)
      (xy 23.2779 -11.2627)
      (xy 23.362 -11.1259)
      (xy 23.4449 -10.9881)
      (xy 23.5265 -10.8494)
      (xy 23.6068 -10.7097)
      (xy 23.6858 -10.5691)
      (xy 23.7634 -10.4276)
      (xy 23.8398 -10.2851)
      (xy 23.9147 -10.1417)
      (xy 23.9883 -9.9975)
      (xy 24.0606 -9.8523)
      (xy 24.1314 -9.7061)
      (xy 24.2008 -9.5591)
      (xy 24.2688 -9.4112)
      (xy 24.3353 -9.2624)
      (xy 24.4004 -9.1127)
      (xy 24.4639 -8.9621)
      (xy 24.526 -8.8107)
      (xy 24.5866 -8.6583)
      (xy 24.6457 -8.5051)
      (xy 24.7032 -8.351)
      (xy 24.7591 -8.196)
      (xy 24.8135 -8.0402)
      (xy 24.8663 -7.8836)
      (xy 24.9175 -7.726)
      (xy 24.9671 -7.5677)
      (xy 25.015 -7.4084)
      (xy 25.0613 -7.2484)
      (xy 25.1059 -7.0875)
      (xy 25.1489 -6.9258)
      (xy 25.1901 -6.7632)
      (xy 25.2297 -6.5998)
      (xy 25.2675 -6.4356)
      (xy 25.3035 -6.2706)
      (xy 25.3379 -6.1048)
      (xy 25.3704 -5.9382)
      (xy 25.4011 -5.7708)
      (xy 25.4301 -5.6026)
      (xy 25.4572 -5.4335)
      (xy 25.4825 -5.2637)
      (xy 25.5059 -5.0932)
      (xy 25.5275 -4.9218)
      (xy 25.5472 -4.7497)
      (xy 25.5649 -4.5767)
      (xy 25.5808 -4.4031)
      (xy 25.5947 -4.2286)
      (xy 25.6067 -4.0534)
      (xy 25.6168 -3.8775)
      (xy 25.6248 -3.7008)
      (xy 25.6309 -3.5233)
      (xy 25.6349 -3.3451)
      (xy 25.637 -3.1662)
      (xy 25.637 -2.9865)
      (xy 25.6349 -2.8061)
      (xy 25.6308 -2.625)
      (xy 25.6246 -2.4432)
      (xy 25.6163 -2.2606)
      (xy 25.6058 -2.0774)
      (xy 25.5997 -1.9855)
      (xy 25.4266 -1.9972)
      (xy 25.4854 -1.834)
      (xy 25.4414 -1.8183)
      (xy 25.3495 -1.7866)
      (xy 25.2532 -1.7548)
      (xy 25.1527 -1.7228)
      (xy 25.0479 -1.6907)
      (xy 24.9389 -1.6585)
      (xy 24.8258 -1.6263)
      (xy 24.7087 -1.594)
      (xy 24.5261 -1.5454)
      (xy 24.2684 -1.4806)
      (xy 23.9958 -1.4158)
      (xy 23.7087 -1.3512)
      (xy 23.4078 -1.287)
      (xy 23.0936 -1.2232)
      (xy 22.7665 -1.16)
      (xy 22.4272 -1.0976)
      (xy 22.0761 -1.036)
      (xy 21.7138 -0.9755)
      (xy 21.3409 -0.9161)
      (xy 20.9579 -0.8579)
      (xy 20.5653 -0.8013)
      (xy 20.1637 -0.7461)
      (xy 19.7535 -0.6927)
      (xy 19.3354 -0.6411)
      (xy 18.9099 -0.5915)
      (xy 18.4775 -0.544)
      (xy 18.0387 -0.4988)
      (xy 17.5941 -0.456)
      (xy 17.1442 -0.4156)
      (xy 16.6896 -0.378)
      (xy 16.2308 -0.3431)
      (xy 15.7684 -0.3112)
      (xy 15.3028 -0.2823)
      (xy 14.8346 -0.2567)
      (xy 14.3644 -0.2344)
      (xy 13.8926 -0.2156)
      (xy 13.6563 -0.2078)
      (xy 13.4199 -0.2005)
      (xy 12.9469 -0.1891)
      (xy 12.5923 -0.1834)
      (xy 12.356 -0.1807)
      (xy 12.12 -0.1791)
      (xy 11.8843 -0.1785)
      (xy 11.649 -0.179)
      (xy 11.4141 -0.1806)
      (xy 11.1798 -0.1833)
      (xy 10.9459 -0.1872)
      (xy 10.7128 -0.1922)
      (xy 10.4803 -0.1983)
      (xy 10.2486 -0.2057)
      (xy 10.0178 -0.2143)
      (xy 9.7879 -0.224)
      (xy 9.559 -0.2351)
      (xy 9.3311 -0.2474)
      (xy 9.1043 -0.2609)
      (xy 8.8787 -0.2758)
      (xy 8.6544 -0.292)
      (xy 8.4314 -0.3095)
      (xy 8.2098 -0.3284)
      (xy 7.9897 -0.3487)
      (xy 7.7711 -0.3703)
      (xy 7.554 -0.3934)
      (xy 7.3387 -0.4178)
      (xy 7.1251 -0.4438)
      (xy 6.9132 -0.4712)
      (xy 6.7033 -0.5001)
      (xy 6.4953 -0.5304)
      (xy 6.3921 -0.5463)
      (xy 6.2893 -0.5623)
      (xy 6.0853 -0.5958)
      (xy 5.8835 -0.6307)
      (xy 5.6839 -0.6672)
      (xy 5.4865 -0.7053)
      (xy 5.2914 -0.745)
      (xy 5.0988 -0.7863)
      (xy 4.9086 -0.8293)
      (xy 4.721 -0.874)
      (xy 4.5359 -0.9204)
      (xy 4.3535 -0.9686)
      (xy 4.1739 -1.0185)
      (xy 3.997 -1.0702)
      (xy 3.823 -1.1237)
      (xy 3.652 -1.1791)
      (xy 3.484 -1.2363)
      (xy 3.319 -1.2955)
      (xy 3.1572 -1.3565)
      (xy 2.9986 -1.4196)
      (xy 2.8432 -1.4846)
      (xy 2.6912 -1.5516)
      (xy 2.5427 -1.6206)
      (xy 2.3976 -1.6917)
      (xy 2.25601 -1.7648)
      (xy 2.11807 -1.8401)
      (xy 1.98382 -1.9175)
      (xy 1.85332 -1.9971)
      (xy 1.75807 -2.0583)
      (xy 1.6957 -2.0997)
      (xy 1.63431 -2.1417)
      (xy 1.57389 -2.1842)
      (xy 1.51448 -2.2273)
      (xy 1.45606 -2.271)
      (xy 1.39865 -2.3152)
      (xy 1.34226 -2.36)
      (xy 1.2869 -2.4054)
      (xy 1.23257 -2.4513)
      (xy 1.20584 -2.4746)
      (xy 1.20315 -2.4772)
      (xy 1.13903 -2.5358)
      (xy 1.04329 -2.6263)
      (xy 0.98056 -2.6885)
      (xy 0.91936 -2.7525)
      (xy 0.86025 -2.8186)
      (xy 0.81773 -2.8699)
      (xy 0.79026 -2.9049)
      (xy 0.76364 -2.9406)
      (xy 0.73792 -2.977)
      (xy 0.72547 -2.9955)
      (xy 0.71319 -3.0141)
      (xy 0.68957 -3.0523)
      (xy 0.66718 -3.0914)
      (xy 0.64611 -3.1315)
      (xy 0.62646 -3.1724)
      (xy 0.60835 -3.2143)
      (xy 0.59185 -3.2571)
      (xy 0.57708 -3.3008)
      (xy 0.56414 -3.3453)
      (xy 0.55312 -3.3907)
      (xy 0.54413 -3.4369)
      (xy 0.53727 -3.484)
      (xy 0.53263 -3.5318)
      (xy 0.53032 -3.5804)
      (xy 0.53044 -3.6298)
      (xy 0.53308 -3.68)
      (xy 0.53549 -3.7053)
      (xy 0.53541 -3.7053)
      (xy 0.54517 -3.7978)
      (xy 0.56884 -3.9997)
      (xy 0.59722 -4.221)
      (xy 0.62998 -4.4604)
      (xy 0.66682 -4.7167)
      (xy 0.70742 -4.9889)
      (xy 0.77431 -5.4226)
      (xy 0.87434 -6.0479)
      (xy 0.98379 -6.7156)
      (xy 1.1598 -7.7737)
      (xy 1.34377 -8.8797)
      (xy 1.46597 -9.6239)
      (xy 1.58512 -10.364)
      (xy 1.67074 -10.9102)
      (xy 1.72568 -11.2684)
      (xy 1.77845 -11.6205)
      (xy 1.82874 -11.9651)
      (xy 1.87623 -12.3011)
      (xy 1.92063 -12.6275)
      (xy 1.9616 -12.9429)
      (xy 1.99884 -13.2463)
      (xy 2.03204 -13.5365)
      (xy 2.06089 -13.8123)
      (xy 2.07338 -13.9437)
      (xy 2.07407 -13.9518)
      (xy 2.0756 -13.9598)
      (xy 2.08871 -14.0284)
      (xy 2.1165 -14.1642)
      (xy 2.14616 -14.2983)
      (xy 2.17768 -14.4306)
      (xy 2.21103 -14.5611)
      (xy 2.24621 -14.6899)
      (xy 2.2832 -14.8169)
      (xy 2.322 -14.9422)
      (xy 2.3625 -15.0658)
      (xy 2.4048 -15.1876)
      (xy 2.4489 -15.3076)
      (xy 2.4946 -15.426)
      (xy 2.5421 -15.5426)
      (xy 2.5913 -15.6574)
      (xy 2.6421 -15.7706)
      (xy 2.6946 -15.882)
      (xy 2.7487 -15.9917)
      (xy 2.8044 -16.0996)
      (xy 2.8618 -16.2059)
      (xy 2.9207 -16.3104)
      (xy 2.9812 -16.4133)
      (xy 3.0433 -16.5144)
      (xy 3.1069 -16.6138)
      (xy 3.172 -16.7115)
      (xy 3.2386 -16.8076)
      (xy 3.3067 -16.9019)
      (xy 3.3763 -16.9945)
      (xy 3.4473 -17.0855)
      (xy 3.5198 -17.1747)
      (xy 3.5937 -17.2623)
      (xy 3.669 -17.3482)
      (xy 3.7456 -17.4324)
      (xy 3.8237 -17.5149)
      (xy 3.9031 -17.5958)
      (xy 3.9838 -17.675)
      (xy 4.0658 -17.7525)
      (xy 4.1492 -17.8284)
      (xy 4.2338 -17.9026)
      (xy 4.3197 -17.9751)
      (xy 4.4069 -18.046)
      (xy 4.4953 -18.1152)
      (xy 4.5849 -18.1828)
      (xy 4.6757 -18.2488)
      (xy 4.7676 -18.3131)
      (xy 4.8608 -18.3757)
      (xy 4.9551 -18.4367)
      (xy 5.0505 -18.4961)
      (xy 5.1471 -18.5538)
      (xy 5.2448 -18.6099)
      (xy 5.3435 -18.6644)
      (xy 5.4433 -18.7173)
      (xy 5.5442 -18.7685)
      (xy 5.646 -18.8181)
      (xy 5.7489 -18.8661)
      (xy 5.8528 -18.9125)
      (xy 5.9577 -18.9573)
      (xy 6.0636 -19.0005)
      (xy 6.1704 -19.042)
      (xy 6.2781 -19.082)
      (xy 6.3867 -19.1204)
      (xy 6.4963 -19.1571)
      (xy 6.6067 -19.1923)
      (xy 6.718 -19.2259)
      (xy 6.8213 -19.2553)
    )

    (stroke (width 0) (type solid)) (fill solid) (layer "F.SilkS") (tstamp f4970dcf-9e8c-48e9-9b2d-c32eae53ab48))
  (fp_poly
    (pts
      (xy 32.2569 -26.9273)
      (xy 32.2631 -26.9267)
      (xy 32.2736 -26.9253)
      (xy 32.2928 -26.9197)
      (xy 32.31 -26.9112)
      (xy 32.3256 -26.9003)
      (xy 32.34 -26.8872)
      (xy 32.3535 -26.8723)
      (xy 32.3728 -26.8476)
      (xy 32.3986 -26.8116)
      (xy 32.4198 -26.7842)
      (xy 32.4353 -26.7664)
      (xy 32.4525 -26.7494)
      (xy 32.4715 -26.7336)
      (xy 32.4929 -26.7193)
      (xy 32.5169 -26.7069)
      (xy 32.5302 -26.7016)
      (xy 32.5289 -26.6107)
      (xy 32.5255 -26.4409)
      (xy 32.5211 -26.2847)
      (xy 32.5157 -26.1414)
      (xy 32.5092 -26.0103)
      (xy 32.5017 -25.8905)
      (xy 32.4931 -25.7814)
      (xy 32.4834 -25.6823)
      (xy 32.4727 -25.5924)
      (xy 32.4609 -25.5108)
      (xy 32.4481 -25.437)
      (xy 32.4341 -25.3702)
      (xy 32.419 -25.3096)
      (xy 32.4029 -25.2545)
      (xy 32.3856 -25.2041)
      (xy 32.3671 -25.1577)
      (xy 32.3476 -25.1145)
      (xy 32.3269 -25.0739)
      (xy 32.305 -25.0351)
      (xy 32.282 -24.9973)
      (xy 32.2455 -24.941)
      (xy 32.1924 -24.8627)
      (xy 32.1493 -24.7979)
      (xy 32.1192 -24.7507)
      (xy 32.0878 -24.6994)
      (xy 32.0553 -24.6433)
      (xy 32.0215 -24.5814)
      (xy 31.9864 -24.5133)
      (xy 31.9501 -24.4379)
      (xy 31.9126 -24.3548)
      (xy 31.8933 -24.3097)
      (xy 31.7495 -24.3897)
      (xy 31.5192 -24.5154)
      (xy 31.3657 -24.5963)
      (xy 31.291 -24.6342)
      (xy 31.3625 -24.858)
      (xy 31.5153 -25.3405)
      (xy 31.681 -25.8699)
      (xy 31.8613 -26.4519)
      (xy 31.958 -26.767)
      (xy 32.2067 -26.9224)
      (xy 32.2146 -26.9241)
      (xy 32.2297 -26.9264)
      (xy 32.2437 -26.9275)
    )

    (stroke (width 0) (type solid)) (fill solid) (layer "F.Mask") (tstamp 2ef32c88-4c52-49b7-a155-4da4009566e8))
  (fp_poly
    (pts
      (xy 5.3004 -9.9108)
      (xy 5.3506 -9.9071)
      (xy 5.3983 -9.9017)
      (xy 5.4437 -9.8948)
      (xy 5.487 -9.8865)
      (xy 5.5285 -9.8769)
      (xy 5.5683 -9.8662)
      (xy 5.6066 -9.8545)
      (xy 5.6436 -9.8418)
      (xy 5.6974 -9.8216)
      (xy 5.8004 -9.7779)
      (xy 5.9021 -9.7327)
      (xy 5.9721 -9.7037)
      (xy 6.0085 -9.69)
      (xy 6.0352 -9.678)
      (xy 6.0881 -9.653)
      (xy 6.1406 -9.6269)
      (xy 6.1926 -9.5998)
      (xy 6.2441 -9.5716)
      (xy 6.2951 -9.5424)
      (xy 6.3455 -9.5122)
      (xy 6.3954 -9.481)
      (xy 6.4447 -9.4489)
      (xy 6.4934 -9.4157)
      (xy 6.5414 -9.3817)
      (xy 6.5889 -9.3467)
      (xy 6.6357 -9.3109)
      (xy 6.6819 -9.2741)
      (xy 6.7273 -9.2365)
      (xy 6.7721 -9.1981)
      (xy 6.8161 -9.1588)
      (xy 6.8594 -9.1187)
      (xy 6.902 -9.0779)
      (xy 6.9438 -9.0362)
      (xy 6.9848 -8.9938)
      (xy 7.025 -8.9507)
      (xy 7.0644 -8.9069)
      (xy 7.1029 -8.8623)
      (xy 7.1406 -8.8171)
      (xy 7.1775 -8.7712)
      (xy 7.2134 -8.7247)
      (xy 7.2484 -8.6776)
      (xy 7.2825 -8.6298)
      (xy 7.3157 -8.5815)
      (xy 7.3479 -8.5326)
      (xy 7.3791 -8.4831)
      (xy 7.4093 -8.4331)
      (xy 7.4385 -8.3826)
      (xy 7.4667 -8.3316)
      (xy 7.4939 -8.2801)
      (xy 7.5199 -8.2281)
      (xy 7.5449 -8.1757)
      (xy 7.5688 -8.1229)
      (xy 7.5916 -8.0697)
      (xy 7.6132 -8.016)
      (xy 7.6337 -7.962)
      (xy 7.6531 -7.9077)
      (xy 7.6712 -7.853)
      (xy 7.6881 -7.798)
      (xy 7.7039 -7.7427)
      (xy 7.7183 -7.6872)
      (xy 7.7316 -7.6313)
      (xy 7.7435 -7.5753)
      (xy 7.7542 -7.519)
      (xy 7.7635 -7.4625)
      (xy 7.7716 -7.4058)
      (xy 7.7783 -7.3489)
      (xy 7.7836 -7.2919)
      (xy 7.7875 -7.2347)
      (xy 7.7901 -7.1774)
      (xy 7.7913 -7.1201)
      (xy 7.791 -7.0626)
      (xy 7.7892 -7.0051)
      (xy 7.7861 -6.9476)
      (xy 7.7814 -6.89)
      (xy 7.7752 -6.8324)
      (xy 7.7675 -6.7748)
      (xy 7.7583 -6.7173)
      (xy 7.753 -6.6885)
      (xy 7.7466 -6.6523)
      (xy 7.7311 -6.5804)
      (xy 7.7125 -6.5094)
      (xy 7.6909 -6.4393)
      (xy 7.6663 -6.3702)
      (xy 7.6388 -6.3021)
      (xy 7.6083 -6.2353)
      (xy 7.575 -6.1698)
      (xy 7.5571 -6.1376)
      (xy 7.546 -6.1197)
      (xy 7.5232 -6.0844)
      (xy 7.4995 -6.0496)
      (xy 7.475 -6.0155)
      (xy 7.437 -5.9653)
      (xy 7.3834 -5.9008)
      (xy 7.3268 -5.8388)
      (xy 7.2674 -5.7796)
      (xy 7.2209 -5.7371)
      (xy 7.1892 -5.7097)
      (xy 7.1567 -5.6829)
      (xy 7.1236 -5.6569)
      (xy 7.1068 -5.6443)
      (xy 7.0689 -5.6153)
      (xy 6.9913 -5.5601)
      (xy 6.9117 -5.5079)
      (xy 6.8303 -5.4589)
      (xy 6.7471 -5.413)
      (xy 6.6622 -5.3702)
      (xy 6.5758 -5.3306)
      (xy 6.488 -5.2941)
      (xy 6.3989 -5.2608)
      (xy 6.3087 -5.2307)
      (xy 6.2174 -5.2038)
      (xy 6.1252 -5.18)
      (xy 6.0322 -5.1595)
      (xy 5.9385 -5.1422)
      (xy 5.8443 -5.1281)
      (xy 5.7496 -5.1172)
      (xy 5.6546 -5.1096)
      (xy 5.5594 -5.1052)
      (xy 5.4641 -5.1041)
      (xy 5.3688 -5.1063)
      (xy 5.2738 -5.1117)
      (xy 5.1789 -5.1205)
      (xy 5.0845 -5.1325)
      (xy 4.9906 -5.1479)
      (xy 4.8974 -5.1666)
      (xy 4.8049 -5.1886)
      (xy 4.7133 -5.2139)
      (xy 4.6227 -5.2426)
      (xy 4.5332 -5.2747)
      (xy 4.4449 -5.3101)
      (xy 4.358 -5.3489)
      (xy 4.2726 -5.3911)
      (xy 4.2305 -5.4136)
      (xy 4.1888 -5.4367)
      (xy 4.107 -5.4855)
      (xy 4.0272 -5.5373)
      (xy 3.9495 -5.5922)
      (xy 3.8739 -5.6499)
      (xy 3.8005 -5.7104)
      (xy 3.7295 -5.7736)
      (xy 3.6607 -5.8393)
      (xy 3.5943 -5.9075)
      (xy 3.5304 -5.978)
      (xy 3.4689 -6.0507)
      (xy 3.41 -6.1256)
      (xy 3.3538 -6.2025)
      (xy 3.3002 -6.2813)
      (xy 3.2493 -6.3619)
      (xy 3.2012 -6.4442)
      (xy 3.1559 -6.5282)
      (xy 3.1136 -6.6136)
      (xy 3.0742 -6.7004)
      (xy 3.0378 -6.7885)
      (xy 3.0045 -6.8777)
      (xy 2.9743 -6.9681)
      (xy 2.9473 -7.0594)
      (xy 2.9236 -7.1515)
      (xy 2.9032 -7.2444)
      (xy 2.8861 -7.3379)
      (xy 2.8724 -7.432)
      (xy 2.8622 -7.5265)
      (xy 2.8556 -7.6213)
      (xy 2.8525 -7.7164)
      (xy 2.8531 -7.8115)
      (xy 2.8575 -7.9067)
      (xy 2.8612 -7.9542)
      (xy 2.8638 -7.9837)
      (xy 2.8698 -8.0434)
      (xy 2.8771 -8.1039)
      (xy 2.8857 -8.165)
      (xy 2.8957 -8.2267)
      (xy 2.9074 -8.2888)
      (xy 2.9208 -8.3513)
      (xy 2.936 -8.414)
      (xy 2.9533 -8.4769)
      (xy 2.9727 -8.5398)
      (xy 2.9944 -8.6026)
      (xy 3.0185 -8.6652)
      (xy 3.0452 -8.7274)
      (xy 3.0746 -8.7893)
      (xy 3.1068 -8.8507)
      (xy 3.142 -8.9115)
      (xy 3.1803 -8.9715)
      (xy 3.2218 -9.0307)
      (xy 3.2667 -9.0889)
      (xy 3.3152 -9.1461)
      (xy 3.3673 -9.2022)
      (xy 3.4232 -9.257)
      (xy 3.483 -9.3104)
      (xy 3.547 -9.3623)
      (xy 3.6151 -9.4126)
      (xy 3.6875 -9.4613)
      (xy 3.7645 -9.5081)
      (xy 3.8254 -9.542)
      (xy 3.8674 -9.564)
      (xy 3.9105 -9.5854)
      (xy 3.9549 -9.6064)
      (xy 4.0005 -9.6268)
      (xy 4.0474 -9.6466)
      (xy 4.0955 -9.6659)
      (xy 4.145 -9.6846)
      (xy 4.1957 -9.7027)
      (xy 4.2477 -9.7203)
      (xy 4.2743 -9.7288)
      (xy 4.3272 -9.7454)
      (xy 4.4286 -9.7756)
      (xy 4.5248 -9.8025)
      (xy 4.616 -9.826)
      (xy 4.7025 -9.8465)
      (xy 4.7844 -9.8639)
      (xy 4.8619 -9.8784)
      (xy 4.9354 -9.8902)
      (xy 5.0048 -9.8994)
      (xy 5.0706 -9.9061)
      (xy 5.1328 -9.9104)
      (xy 5.1917 -9.9126)
      (xy 5.2475 -9.9127)
    )

    (stroke (width 0) (type solid)) (fill solid) (layer "F.Mask") (tstamp 7b0c60be-7bbc-429d-925a-75021a72ce2b))
  (fp_poly
    (pts
      (xy 26.7967 -15.5871)
      (xy 26.7964 -15.5869)
      (xy 26.817 -15.5861)
      (xy 26.8573 -15.5826)
      (xy 26.8969 -15.5768)
      (xy 26.9357 -15.569)
      (xy 26.9738 -15.5594)
      (xy 27.0111 -15.5482)
      (xy 27.0477 -15.5356)
      (xy 27.0836 -15.5218)
      (xy 27.1361 -15.4994)
      (xy 27.2038 -15.4672)
      (xy 27.3006 -15.4175)
      (xy 27.3615 -15.3865)
      (xy 27.4233 -15.3555)
      (xy 27.5455 -15.2912)
      (xy 27.6665 -15.2245)
      (xy 27.7865 -15.1559)
      (xy 27.9057 -15.0856)
      (xy 28.0242 -15.0141)
      (xy 28.2012 -14.9054)
      (xy 28.4368 -14.7595)
      (xy 28.6141 -14.6513)
      (xy 28.7329 -14.5803)
      (xy 28.8524 -14.5107)
      (xy 28.9729 -14.4429)
      (xy 29.0946 -14.3773)
      (xy 29.2175 -14.3142)
      (xy 29.2796 -14.2838)
      (xy 29.2963 -14.2759)
      (xy 29.3302 -14.2607)
      (xy 29.3824 -14.2393)
      (xy 29.4546 -14.2134)
      (xy 29.5293 -14.19)
      (xy 29.6063 -14.1691)
      (xy 29.6853 -14.1501)
      (xy 29.7659 -14.133)
      (xy 29.8479 -14.1173)
      (xy 29.9727 -14.0958)
      (xy 30.1413 -14.0699)
      (xy 30.3101 -14.0449)
      (xy 30.4352 -14.0252)
      (xy 30.5174 -14.0111)
      (xy 30.5984 -13.996)
      (xy 30.6778 -13.9796)
      (xy 30.7552 -13.9615)
      (xy 30.8305 -13.9415)
      (xy 30.9033 -13.9192)
      (xy 30.9733 -13.8945)
      (xy 31.0238 -13.8741)
      (xy 31.0564 -13.8596)
      (xy 31.0882 -13.8443)
      (xy 31.1191 -13.8283)
      (xy 31.149 -13.8113)
      (xy 31.178 -13.7935)
      (xy 31.206 -13.7747)
      (xy 31.2329 -13.755)
      (xy 31.2587 -13.7343)
      (xy 31.2835 -13.7126)
      (xy 31.307 -13.6898)
      (xy 31.3294 -13.6659)
      (xy 31.3505 -13.6409)
      (xy 31.3704 -13.6147)
      (xy 31.3889 -13.5872)
      (xy 31.4062 -13.5586)
      (xy 31.422 -13.5287)
      (xy 31.4364 -13.4974)
      (xy 31.4494 -13.4648)
      (xy 31.4609 -13.4308)
      (xy 31.466 -13.4133)
      (xy 31.47 -13.3984)
      (xy 31.4765 -13.3691)
      (xy 31.4812 -13.3401)
      (xy 31.4841 -13.3116)
      (xy 31.4854 -13.2835)
      (xy 31.4849 -13.2557)
      (xy 31.4829 -13.2283)
      (xy 31.4793 -13.2012)
      (xy 31.4742 -13.1745)
      (xy 31.4676 -13.1481)
      (xy 31.4596 -13.122)
      (xy 31.4502 -13.0962)
      (xy 31.4395 -13.0707)
      (xy 31.4275 -13.0454)
      (xy 31.4143 -13.0204)
      (xy 31.4 -12.9957)
      (xy 31.3765 -12.9589)
      (xy 31.3413 -12.9107)
      (xy 31.3023 -12.8633)
      (xy 31.2598 -12.8165)
      (xy 31.2144 -12.7703)
      (xy 31.1662 -12.7245)
      (xy 31.1159 -12.679)
      (xy 31.0636 -12.6338)
      (xy 30.9276 -12.5212)
      (xy 30.76 -12.3848)
      (xy 30.6781 -12.3153)
      (xy 30.6249 -12.2683)
      (xy 30.5733 -12.2206)
      (xy 30.5238 -12.1722)
      (xy 30.4767 -12.1229)
      (xy 30.4323 -12.0725)
      (xy 30.3912 -12.0211)
      (xy 30.3628 -11.9818)
      (xy 30.345 -11.9551)
      (xy 30.3282 -11.9282)
      (xy 30.3125 -11.9009)
      (xy 30.2979 -11.8733)
      (xy 30.2845 -11.8452)
      (xy 30.2782 -11.8311)
      (xy 30.2495 -11.7638)
      (xy 30.1935 -11.6275)
      (xy 30.1392 -11.4893)
      (xy 30.0867 -11.3493)
      (xy 30.0359 -11.2075)
      (xy 29.9868 -11.0641)
      (xy 29.9393 -10.9191)
      (xy 29.8934 -10.7726)
      (xy 29.8491 -10.6247)
      (xy 29.8062 -10.4754)
      (xy 29.7649 -10.3248)
      (xy 29.725 -10.1731)
      (xy 29.6865 -10.0203)
      (xy 29.6494 -9.8664)
      (xy 29.6136 -9.7116)
      (xy 29.579 -9.556)
      (xy 29.5458 -9.3996)
      (xy 29.5138 -9.2424)
      (xy 29.4829 -9.0847)
      (xy 29.4532 -8.9264)
      (xy 29.4246 -8.7677)
      (xy 29.397 -8.6086)
      (xy 29.3575 -8.3694)
      (xy 29.3084 -8.0499)
      (xy 29.2629 -7.7304)
      (xy 29.2207 -7.4115)
      (xy 29.1815 -7.0938)
      (xy 29.1449 -6.778)
      (xy 29.1108 -6.4647)
      (xy 29.0788 -6.1546)
      (xy 29.0486 -5.8484)
      (xy 28.9784 -5.1)
      (xy 28.9011 -4.2604)
      (xy 28.8622 -3.8663)
      (xy 28.8356 -3.6139)
      (xy 28.8081 -3.3712)
      (xy 28.7794 -3.1388)
      (xy 28.7491 -2.9174)
      (xy 28.7253 -2.7592)
      (xy 28.7088 -2.6573)
      (xy 28.7003 -2.6076)
      (xy 28.692 -2.5581)
      (xy 28.6742 -2.4586)
      (xy 28.6542 -2.3596)
      (xy 28.6369 -2.2863)
      (xy 28.6241 -2.2381)
      (xy 28.6103 -2.1906)
      (xy 28.5952 -2.1439)
      (xy 28.5786 -2.0981)
      (xy 28.5606 -2.0534)
      (xy 28.5409 -2.0099)
      (xy 28.5194 -1.9677)
      (xy 28.496 -1.927)
      (xy 28.4705 -1.8879)
      (xy 28.4569 -1.8691)
      (xy 28.4453 -1.8535)
      (xy 28.4212 -1.8241)
      (xy 28.3962 -1.7965)
      (xy 28.3702 -1.7707)
      (xy 28.3434 -1.7466)
      (xy 28.3158 -1.7243)
      (xy 28.2874 -1.7036)
      (xy 28.2582 -1.6844)
      (xy 28.2284 -1.6668)
      (xy 28.1979 -1.6507)
      (xy 28.1668 -1.6359)
      (xy 28.1351 -1.6226)
      (xy 28.1029 -1.6105)
      (xy 28.0702 -1.5997)
      (xy 28.037 -1.59)
      (xy 28.0034 -1.5815)
      (xy 27.9695 -1.5741)
      (xy 27.9352 -1.5677)
      (xy 27.8833 -1.5597)
      (xy 27.8133 -1.5524)
      (xy 27.7428 -1.5481)
      (xy 27.672 -1.5464)
      (xy 27.6012 -1.5468)
      (xy 27.531 -1.549)
      (xy 27.4614 -1.5525)
      (xy 27.4271 -1.5546)
      (xy 27.3158 -1.5615)
      (xy 27.0929 -1.5767)
      (xy 26.9257 -1.5905)
      (xy 26.8143 -1.6013)
      (xy 26.7032 -1.6136)
      (xy 26.5922 -1.6279)
      (xy 26.4817 -1.6443)
      (xy 26.3715 -1.6633)
      (xy 26.2617 -1.685)
      (xy 26.1526 -1.7097)
      (xy 26.044 -1.7377)
      (xy 25.9361 -1.7694)
      (xy 25.8557 -1.7959)
      (xy 25.8023 -1.8147)
      (xy 25.7491 -1.8346)
      (xy 25.6962 -1.8555)
      (xy 25.6698 -1.8665)
      (xy 25.639 -1.8796)
      (xy 25.5778 -1.9078)
      (xy 25.5171 -1.9378)
      (xy 25.4568 -1.9696)
      (xy 25.4269 -1.986)
      (xy 25.4264 -1.9884)
      (xy 25.5995 -1.9766)
      (xy 25.6059 -2.0723)
      (xy 25.6166 -2.263)
      (xy 25.625 -2.4529)
      (xy 25.6312 -2.6421)
      (xy 25.6351 -2.8304)
      (xy 25.6367 -3.018)
      (xy 25.6361 -3.2047)
      (xy 25.6333 -3.3907)
      (xy 25.6283 -3.5759)
      (xy 25.6211 -3.7602)
      (xy 25.6118 -3.9437)
      (xy 25.6003 -4.1265)
      (xy 25.5867 -4.3083)
      (xy 25.571 -4.4894)
      (xy 25.5532 -4.6697)
      (xy 25.5334 -4.8491)
      (xy 25.5115 -5.0276)
      (xy 25.4875 -5.2053)
      (xy 25.4616 -5.3822)
      (xy 25.4337 -5.5582)
      (xy 25.4038 -5.7334)
      (xy 25.3719 -5.9077)
      (xy 25.3381 -6.0812)
      (xy 25.3024 -6.2537)
      (xy 25.2648 -6.4254)
      (xy 25.2254 -6.5963)
      (xy 25.184 -6.7662)
      (xy 25.1408 -6.9353)
      (xy 25.0958 -7.1034)
      (xy 25.049 -7.2707)
      (xy 25.0004 -7.4371)
      (xy 24.9501 -7.6026)
      (xy 24.9241 -7.6849)
      (xy 24.9758 -7.8676)
      (xy 25.0811 -8.2425)
      (xy 25.1877 -8.6266)
      (xy 25.2941 -9.0172)
      (xy 25.3992 -9.4116)
      (xy 25.5014 -9.8072)
      (xy 25.5753 -10.1029)
      (xy 25.623 -10.2991)
      (xy 25.6694 -10.494)
      (xy 25.7141 -10.6874)
      (xy 25.757 -10.8789)
      (xy 25.798 -11.0682)
      (xy 25.8368 -11.255)
      (xy 25.8734 -11.4388)
      (xy 25.9075 -11.6195)
      (xy 25.939 -11.7966)
      (xy 25.9677 -11.9698)
      (xy 25.9935 -12.1388)
      (xy 26.0161 -12.3033)
      (xy 26.0355 -12.4629)
      (xy 26.0514 -12.6172)
      (xy 26.0636 -12.766)
      (xy 26.0721 -12.9089)
      (xy 26.0757 -13.0119)
      (xy 26.077 -13.0786)
      (xy 26.0772 -13.1437)
      (xy 26.0763 -13.207)
      (xy 26.0743 -13.2687)
      (xy 26.0713 -13.3285)
      (xy 26.0693 -13.3577)
      (xy 26.048 -13.6533)
      (xy 26.0228 -14.0252)
      (xy 26.0103 -14.2395)
      (xy 26.0019 -14.4275)
      (xy 25.9989 -14.552)
      (xy 25.9983 -14.6284)
      (xy 25.999 -14.6996)
      (xy 26.0011 -14.7658)
      (xy 26.0046 -14.8273)
      (xy 26.0096 -14.8844)
      (xy 26.0162 -14.9374)
      (xy 26.0244 -14.9866)
      (xy 26.0342 -15.0322)
      (xy 26.0458 -15.0746)
      (xy 26.0592 -15.114)
      (xy 26.0745 -15.1507)
      (xy 26.0917 -15.1851)
      (xy 26.1108 -15.2174)
      (xy 26.132 -15.2479)
      (xy 26.1553 -15.2769)
      (xy 26.1807 -15.3047)
      (xy 26.2084 -15.3315)
      (xy 26.2383 -15.3577)
      (xy 26.2706 -15.3836)
      (xy 26.3053 -15.4094)
      (xy 26.3424 -15.4354)
      (xy 26.3621 -15.4486)
      (xy 26.3769 -15.4584)
      (xy 26.4063 -15.4767)
      (xy 26.4354 -15.4934)
      (xy 26.4641 -15.5086)
      (xy 26.4926 -15.5222)
      (xy 26.5206 -15.5344)
      (xy 26.5484 -15.5453)
      (xy 26.5759 -15.5548)
      (xy 26.603 -15.5629)
      (xy 26.6298 -15.5698)
      (xy 26.6563 -15.5755)
      (xy 26.6825 -15.58)
      (xy 26.7084 -15.5834)
      (xy 26.734 -15.5858)
      (xy 26.7719 -15.5874)
    )

    (stroke (width 0) (type solid)) (fill solid) (layer "F.Mask") (tstamp b49770e1-499f-4765-aa14-c5e435a4994d))
  (fp_poly
    (pts
      (xy 20.2259 -13.6463)
      (xy 20.2387 -13.6461)
      (xy 20.2644 -13.6447)
      (xy 20.2898 -13.6421)
      (xy 20.315 -13.6382)
      (xy 20.34 -13.6332)
      (xy 20.3646 -13.627)
      (xy 20.3888 -13.6196)
      (xy 20.4127 -13.611)
      (xy 20.4361 -13.6013)
      (xy 20.459 -13.5905)
      (xy 20.4814 -13.5786)
      (xy 20.5032 -13.5657)
      (xy 20.5244 -13.5516)
      (xy 20.5449 -13.5366)
      (xy 20.5648 -13.5204)
      (xy 20.5839 -13.5033)
      (xy 20.5932 -13.4943)
      (xy 20.6021 -13.485)
      (xy 20.619 -13.4658)
      (xy 20.635 -13.4459)
      (xy 20.65 -13.4253)
      (xy 20.6639 -13.404)
      (xy 20.6768 -13.3822)
      (xy 20.6887 -13.3598)
      (xy 20.6994 -13.3369)
      (xy 20.7091 -13.3135)
      (xy 20.7177 -13.2897)
      (xy 20.7251 -13.2655)
      (xy 20.7314 -13.241)
      (xy 20.7366 -13.2161)
      (xy 20.7405 -13.1909)
      (xy 20.7433 -13.1655)
      (xy 20.7449 -13.1399)
      (xy 20.7452 -13.1271)
      (xy 20.7462 -13.0039)
      (xy 20.7514 -12.7577)
      (xy 20.7605 -12.5116)
      (xy 20.7734 -12.2657)
      (xy 20.7901 -12.02)
      (xy 20.8107 -11.7746)
      (xy 20.835 -11.5296)
      (xy 20.8632 -11.2849)
      (xy 20.8789 -11.1627)
      (xy 20.8855 -11.1185)
      (xy 20.8944 -11.0521)
      (xy 20.8992 -11.0077)
      (xy 20.9011 -10.9854)
      (xy 20.9017 -10.9627)
      (xy 20.9009 -10.9175)
      (xy 20.8977 -10.8724)
      (xy 20.8921 -10.8275)
      (xy 20.8884 -10.8052)
      (xy 20.8853 -10.7795)
      (xy 20.8769 -10.7286)
      (xy 20.8657 -10.6784)
      (xy 20.8518 -10.6289)
      (xy 20.8352 -10.5802)
      (xy 20.816 -10.5325)
      (xy 20.7942 -10.4859)
      (xy 20.7698 -10.4404)
      (xy 20.7566 -10.4182)
      (xy 20.7415 -10.3942)
      (xy 20.7092 -10.348)
      (xy 20.6743 -10.3041)
      (xy 20.637 -10.2626)
      (xy 20.5974 -10.2236)
      (xy 20.5557 -10.1872)
      (xy 20.5119 -10.1534)
      (xy 20.4663 -10.1223)
      (xy 20.4189 -10.094)
      (xy 20.3699 -10.0686)
      (xy 20.3194 -10.0461)
      (xy 20.2675 -10.0267)
      (xy 20.2144 -10.0103)
      (xy 20.1602 -9.9972)
      (xy 20.105 -9.9873)
      (xy 20.049 -9.9807)
      (xy 20.0207 -9.9789)
      (xy 20.0076 -9.9782)
      (xy 19.9812 -9.9778)
      (xy 19.9544 -9.9787)
      (xy 19.9275 -9.9806)
      (xy 19.8867 -9.9852)
      (xy 19.8319 -9.9942)
      (xy 19.7771 -10.0055)
      (xy 19.7225 -10.0182)
      (xy 19.642 -10.0382)
      (xy 19.5902 -10.0504)
      (xy 19.0678 -10.1713)
      (xy 18.5477 -10.2912)
      (xy 18.4751 -10.308)
      (xy 18.3658 -10.3326)
      (xy 18.2928 -10.3481)
      (xy 18.2562 -10.3553)
      (xy 18.2348 -10.3568)
      (xy 18.1919 -10.3579)
      (xy 18.1704 -10.3577)
      (xy 18.1542 -10.3492)
      (xy 18.1225 -10.3311)
      (xy 18.0915 -10.3119)
      (xy 18.0612 -10.2915)
      (xy 18.0463 -10.2809)
      (xy 18.034 -10.271)
      (xy 18.0218 -10.261)
      (xy 17.1159 -9.5028)
      (xy 16.5887 -9.0635)
      (xy 16.5256 -9.0098)
      (xy 16.4292 -8.928)
      (xy 16.3798 -8.8883)
      (xy 16.3463 -8.8628)
      (xy 16.3122 -8.8382)
      (xy 16.2775 -8.8148)
      (xy 16.242 -8.7928)
      (xy 16.2058 -8.7724)
      (xy 16.1688 -8.7539)
      (xy 16.1308 -8.7373)
      (xy 16.0918 -8.723)
      (xy 16.0518 -8.7111)
      (xy 16.0313 -8.7063)
      (xy 16.0158 -8.7025)
      (xy 15.9847 -8.6958)
      (xy 15.9534 -8.6904)
      (xy 15.9219 -8.6863)
      (xy 15.8903 -8.6833)
      (xy 15.8586 -8.6815)
      (xy 15.8268 -8.681)
      (xy 15.795 -8.6816)
      (xy 15.7791 -8.6825)
      (xy 15.7565 -8.6843)
      (xy 15.7117 -8.6898)
      (xy 15.6672 -8.6974)
      (xy 15.6232 -8.707)
      (xy 15.5796 -8.7187)
      (xy 15.5367 -8.7325)
      (xy 15.4944 -8.7482)
      (xy 15.4529 -8.766)
      (xy 15.4324 -8.7757)
      (xy 15.4182 -8.7829)
      (xy 15.3903 -8.7981)
      (xy 15.363 -8.8143)
      (xy 15.3363 -8.8314)
      (xy 15.3103 -8.8494)
      (xy 15.285 -8.8683)
      (xy 15.2603 -8.888)
      (xy 15.2364 -8.9086)
      (xy 15.2132 -8.93)
      (xy 15.1908 -8.9522)
      (xy 15.1692 -8.9752)
      (xy 15.1483 -8.999)
      (xy 15.1283 -9.0235)
      (xy 15.1092 -9.0487)
      (xy 15.0909 -9.0747)
      (xy 15.0735 -9.1013)
      (xy 15.0652 -9.1149)
      (xy 15.0428 -9.1522)
      (xy 15.0212 -9.1904)
      (xy 14.7897 -9.5907)
      (xy 14.0349 -10.8976)
      (xy 13.5908 -11.6651)
      (xy 13.5845 -11.6766)
      (xy 13.5729 -11.6999)
      (xy 13.5624 -11.7236)
      (xy 13.5532 -11.7478)
      (xy 13.5451 -11.7723)
      (xy 13.5382 -11.7971)
      (xy 13.5325 -11.8221)
      (xy 13.5279 -11.8474)
      (xy 13.5246 -11.8729)
      (xy 13.5225 -11.8985)
      (xy 13.5216 -11.9242)
      (xy 13.5219 -11.95)
      (xy 13.5234 -11.9757)
      (xy 13.5262 -12.0015)
      (xy 13.5302 -12.0271)
      (xy 13.5354 -12.0526)
      (xy 13.5385 -12.0653)
      (xy 13.5421 -12.0775)
      (xy 13.55 -12.1014)
      (xy 13.5591 -12.1249)
      (xy 13.5693 -12.1478)
      (xy 13.5805 -12.1702)
      (xy 13.5928 -12.1919)
      (xy 13.606 -12.2131)
      (xy 13.6203 -12.2335)
      (xy 13.6355 -12.2533)
      (xy 13.6516 -12.2723)
      (xy 13.6686 -12.2905)
      (xy 13.6865 -12.308)
      (xy 13.7052 -12.3246)
      (xy 13.7248 -12.3403)
      (xy 13.7451 -12.3551)
      (xy 13.7662 -12.3689)
      (xy 13.7771 -12.3755)
      (xy 13.7887 -12.3822)
      (xy 13.8123 -12.3944)
      (xy 13.8363 -12.4053)
      (xy 13.8605 -12.4149)
      (xy 13.885 -12.4232)
      (xy 13.9097 -12.4303)
      (xy 13.9346 -12.436)
      (xy 13.9596 -12.4405)
      (xy 13.9847 -12.4438)
      (xy 14.0098 -12.4458)
      (xy 14.035 -12.4466)
      (xy 14.06 -12.4461)
      (xy 14.085 -12.4445)
      (xy 14.1098 -12.4417)
      (xy 14.1344 -12.4377)
      (xy 14.1588 -12.4325)
      (xy 14.1829 -12.4262)
      (xy 14.2067 -12.4187)
      (xy 14.2301 -12.4102)
      (xy 14.2531 -12.4004)
      (xy 14.2756 -12.3896)
      (xy 14.2976 -12.3777)
      (xy 14.3191 -12.3647)
      (xy 14.34 -12.3506)
      (xy 14.3603 -12.3355)
      (xy 14.3799 -12.3193)
      (xy 14.3987 -12.302)
      (xy 14.4168 -12.2838)
      (xy 14.4341 -12.2645)
      (xy 14.4505 -12.2442)
      (xy 14.466 -12.223)
      (xy 14.4806 -12.2007)
      (xy 14.4875 -12.1892)
      (xy 14.6719 -11.8729)
      (xy 15.4672 -10.4974)
      (xy 15.8142 -9.8972)
      (xy 15.8396 -9.8535)
      (xy 15.866 -9.8104)
      (xy 16.0663 -9.9772)
      (xy 16.2667 -10.1446)
      (xy 17.0892 -10.8322)
      (xy 17.1884 -10.9156)
      (xy 17.2877 -10.9986)
      (xy 17.325 -11.0312)
      (xy 17.4014 -11.0941)
      (xy 17.4799 -11.1543)
      (xy 17.5606 -11.2115)
      (xy 17.6018 -11.239)
      (xy 17.6282 -11.2541)
      (xy 17.682 -11.2822)
      (xy 17.737 -11.3079)
      (xy 17.793 -11.3312)
      (xy 17.8215 -11.3418)
      (xy 17.835 -11.3472)
      (xy 17.8625 -11.3568)
      (xy 17.8904 -11.3649)
      (xy 17.9188 -11.3716)
      (xy 17.9331 -11.3743)
      (xy 17.9652 -11.3806)
      (xy 18.0298 -11.3906)
      (xy 18.0947 -11.3974)
      (xy 18.16 -11.401)
      (xy 18.1927 -11.4015)
      (xy 18.2242 -11.3999)
      (xy 18.287 -11.3949)
      (xy 18.3496 -11.388)
      (xy 18.412 -11.3792)
      (xy 18.4431 -11.3739)
      (xy 18.4663 -11.3703)
      (xy 18.5127 -11.3622)
      (xy 18.5821 -11.3484)
      (xy 18.7206 -11.3167)
      (xy 18.8126 -11.2948)
      (xy 19.3113 -11.1797)
      (xy 19.8305 -11.0598)
      (xy 19.8434 -11.0566)
      (xy 19.8563 -11.0535)
      (xy 19.8477 -11.1179)
      (xy 19.8313 -11.2468)
      (xy 19.816 -11.3758)
      (xy 19.8016 -11.505)
      (xy 19.7882 -11.6342)
      (xy 19.7759 -11.7635)
      (xy 19.7645 -11.8929)
      (xy 19.7542 -12.0224)
      (xy 19.7448 -12.152)
      (xy 19.7365 -12.2816)
      (xy 19.7291 -12.4113)
      (xy 19.7228 -12.541)
      (xy 19.7174 -12.6708)
      (xy 19.7131 -12.8007)
      (xy 19.7097 -12.9306)
      (xy 19.7074 -13.0605)
      (xy 19.7067 -13.1255)
      (xy 19.7067 -13.1273)
      (xy 19.7067 -13.1409)
      (xy 19.708 -13.1678)
      (xy 19.7106 -13.1941)
      (xy 19.7146 -13.22)
      (xy 19.7198 -13.2454)
      (xy 19.7263 -13.2702)
      (xy 19.734 -13.2944)
      (xy 19.7429 -13.318)
      (xy 19.7529 -13.341)
      (xy 19.764 -13.3634)
      (xy 19.7762 -13.3851)
      (xy 19.7894 -13.4061)
      (xy 19.8036 -13.4264)
      (xy 19.8188 -13.446)
      (xy 19.8349 -13.4648)
      (xy 19.8518 -13.4828)
      (xy 19.8696 -13.5001)
      (xy 19.8882 -13.5165)
      (xy 19.9076 -13.532)
      (xy 19.9277 -13.5467)
      (xy 19.9485 -13.5604)
      (xy 19.97 -13.5733)
      (xy 19.9921 -13.5852)
      (xy 20.0147 -13.5961)
      (xy 20.038 -13.606)
      (xy 20.0617 -13.615)
      (xy 20.0859 -13.6228)
      (xy 20.1105 -13.6297)
      (xy 20.1356 -13.6354)
      (xy 20.161 -13.64)
      (xy 20.1867 -13.6435)
      (xy 20.2127 -13.6458)
      (xy 20.2259 -13.6465)
    )

    (stroke (width 0) (type solid)) (fill solid) (layer "F.Mask") (tstamp 2ca37f45-dce9-4c24-aca4-b681f4024334))
)
