(footprint "NetTie-2_SMD_Pad0.5mm" (version 20221018) (generator pcbnew)
  (layer "F.Cu")
  (descr "Net tie, 2 pin, 0.5mm square SMD pads")
  (tags "net tie")
  (property "Digikey" "-")
  (property "JLCPCB" "")
  (property "JLCPCB_CORRECTION" "")
  (property "MPN" "-")
  (property "Sheetfile" "rework-ctf.kicad_sch")
  (property "Sheetname" "")
  (property "exclude_from_bom" "")
  (property "ki_description" "Net tie, 2 pins")
  (property "ki_keywords" "net tie short")
  (zone_connect 2)
  (attr exclude_from_pos_files exclude_from_bom)
  (net_tie_pad_groups "1, 2")
  (fp_text reference "NT1" (at 0 -1.2 180) (layer "F.SilkS") hide
      (effects (font (size 0.7 0.7) (thickness 0.15)))
    (tstamp 5005662b-0e93-40ab-b674-b3a3513c5199)
  )
  (fp_text value "NetTie" (at 0 1.2 180) (layer "F.Fab") hide
      (effects (font (size 1 1) (thickness 0.15)))
    (tstamp 6e36ba63-60cf-4a79-b091-fb45f79b41bc)
  )
  (fp_poly
    (pts
      (xy -0.5 -0.25)
      (xy 0.5 -0.25)
      (xy 0.5 0.25)
      (xy -0.5 0.25)
    )

    (stroke (width 0) (type solid)) (fill solid) (layer "F.Cu") (tstamp 383ae00d-dd52-487a-b4fd-e7ffada43162))
  (pad "1" smd circle (at -0.5 0) (size 0.5 0.5) (layers "F.Cu") (tstamp 0978ece8-99de-4ca3-80b1-a4904110aeac))
  (pad "2" smd circle (at 0.5 0) (size 0.5 0.5) (layers "F.Cu") (tstamp c20d2e74-f8d2-4e05-963a-0ef3313249a0))
)
