(footprint "R_0603_1608Metric_Missing_Soldermaskaperture" (version 20221018) (generator pcbnew)
  (layer "F.Cu")
  (descr "Resistor SMD 0603 (1608 Metric), square (rectangular) end terminal, IPC_7351 nominal, (Body size source: IPC-SM-782 page 72, https://www.pcb-3d.com/wordpress/wp-content/uploads/ipc-sm-782a_amendment_1_and_2.pdf), generated with kicad-footprint-generator")
  (tags "resistor")
  (attr smd)
  (fp_text reference "REF**" (at 0 -1.43) (layer "F.SilkS")
      (effects (font (size 1 1) (thickness 0.15)))
    (tstamp 6df974b4-b819-4abf-a570-cfac24b90f22)
  )
  (fp_text value "R_0603_1608Metric_Missing_Soldermaskaperture" (at 0 1.43) (layer "F.Fab")
      (effects (font (size 1 1) (thickness 0.15)))
    (tstamp 43a2d3f9-8880-4891-bb65-e1f1adf1c2a5)
  )
  (fp_text user "${REFERENCE}" (at 0 0) (layer "F.Fab")
      (effects (font (size 0.4 0.4) (thickness 0.06)))
    (tstamp 2dfd6efa-e1ab-4e55-ab2b-7f9e70f33afa)
  )
  (fp_line (start -0.237258 -0.5225) (end 0.237258 -0.5225)
    (stroke (width 0.12) (type solid)) (layer "F.SilkS") (tstamp 8ec8ba9e-3d89-4f37-94bb-eddf5e4d7489))
  (fp_line (start -0.237258 0.5225) (end 0.237258 0.5225)
    (stroke (width 0.12) (type solid)) (layer "F.SilkS") (tstamp 2bf1d867-cdfa-44dc-9124-ce584dcd094b))
  (fp_line (start -1.48 -0.73) (end 1.48 -0.73)
    (stroke (width 0.05) (type solid)) (layer "F.CrtYd") (tstamp 24e272be-4051-4b9b-9127-1c7f22532469))
  (fp_line (start -1.48 0.73) (end -1.48 -0.73)
    (stroke (width 0.05) (type solid)) (layer "F.CrtYd") (tstamp 39fddbf8-ad85-4516-95fc-b7f57b1b5476))
  (fp_line (start 1.48 -0.73) (end 1.48 0.73)
    (stroke (width 0.05) (type solid)) (layer "F.CrtYd") (tstamp 2bbe1e5e-3213-443e-930c-a0ae97a345e1))
  (fp_line (start 1.48 0.73) (end -1.48 0.73)
    (stroke (width 0.05) (type solid)) (layer "F.CrtYd") (tstamp dc275714-5365-4c02-a2fb-5cbd77201d52))
  (fp_line (start -0.8 -0.4125) (end 0.8 -0.4125)
    (stroke (width 0.1) (type solid)) (layer "F.Fab") (tstamp 30e382fb-e120-4499-bc15-156f98cd93e8))
  (fp_line (start -0.8 0.4125) (end -0.8 -0.4125)
    (stroke (width 0.1) (type solid)) (layer "F.Fab") (tstamp d04dd1a4-2178-41f5-9bb7-ad470915f47a))
  (fp_line (start 0.8 -0.4125) (end 0.8 0.4125)
    (stroke (width 0.1) (type solid)) (layer "F.Fab") (tstamp 0746adbb-419c-491f-ae91-c14351e88a28))
  (fp_line (start 0.8 0.4125) (end -0.8 0.4125)
    (stroke (width 0.1) (type solid)) (layer "F.Fab") (tstamp 9ddd7cd8-091d-447c-bc2a-eed5612caf40))
  (pad "1" smd roundrect (at -0.825 0) (size 0.8 0.95) (layers "F.Cu") (roundrect_rratio 0.25) (tstamp 958f80d5-b7aa-4100-9f8f-c88ef419994d))
  (pad "2" smd roundrect (at 0.825 0) (size 0.8 0.95) (layers "F.Cu" "F.Paste" "F.Mask") (roundrect_rratio 0.25) (tstamp dbf61a86-b574-45d2-ba89-95e1ee8fabb2))
  (model "${KICAD6_3DMODEL_DIR}/Resistor_SMD.3dshapes/R_0603_1608Metric.wrl"
    (offset (xyz 0 0 0))
    (scale (xyz 1 1 1))
    (rotate (xyz 0 0 0))
  )
)
